"http://www.wingnutwings.com/ww/v46A6C38E/www/products/model_kitsets/32001/colour_schemes/Junkers%20A.jpg"
"http://www.wingnutwings.com/ww/v46A6C38E/www/products/model_kitsets/32001/colour_schemes/Junkers%20B.jpg"
"http://www.wingnutwings.com/ww/v46A6C38E/www/products/model_kitsets/32001/colour_schemes/Junkers%20C.jpg"
"http://www.wingnutwings.com/ww/v46A6C38E/www/products/model_kitsets/32001/colour_schemes/Junkers%20D.jpg"
"http://www.wingnutwings.com/ww/v46A6C38E/www/products/model_kitsets/32001/colour_schemes/Junkers%20E.jpg"
"http://www.wingnutwings.com/ww/v46A6C38E/www/products/model_kitsets/32002/colour_schemes/LVG%20C.VI%2012%201918%20.jpg"
"http://www.wingnutwings.com/ww/v46A6C38E/www/products/model_kitsets/32002/colour_schemes/LVG%20C.VI%201562-18%201918.jpg"
"http://www.wingnutwings.com/ww/v46A6C38E/www/products/model_kitsets/32002/colour_schemes/LVG%20C.VI%201563-18%201918%20.jpg"
"http://www.wingnutwings.com/ww/v46A6C38E/www/products/model_kitsets/32002/colour_schemes/LVG%20C.VI%204802-18%201918.jpg"
"http://www.wingnutwings.com/ww/v46A6C38E/www/products/model_kitsets/32002/colour_schemes/LVG%20C.VI%204891-18%201918%20.jpg"
"http://www.wingnutwings.com/ww/v46A6C38E/www/products/model_kitsets/32002/colour_schemes/LVG%20C.VI%207766-18%201%201918.jpg"
"http://www.wingnutwings.com/ww/v46A6C38E/www/products/model_kitsets/32002/colour_schemes/LVG%20C.VI%2014400-17%20%20late%20prototype%201918%20.jpg"
"http://www.wingnutwings.com/ww/v46A6C38E/www/products/model_kitsets/32003/colour_schemes/B574%20F,%20Vickers%20built,%2084%20Sqn,%202nd%20Lt%20T.V.%20Lord,%20October%201917.jpg"
"http://www.wingnutwings.com/ww/v46A6C38E/www/products/model_kitsets/32003/colour_schemes/B603%20'Niada%20Gana',%20Vickers%20built,%20UK%20training%20unit,%201917-18.jpg"
"http://www.wingnutwings.com/ww/v46A6C38E/www/products/model_kitsets/32003/colour_schemes/C1057%20'C',%20RAF%20built,%2024%20Sqn,%202nd%20Lt%20A.P.C.Wigan,%20March%201918.jpg"
"http://www.wingnutwings.com/ww/v46A6C38E/www/products/model_kitsets/32003/colour_schemes/D351%20'4',%20Vickers%20built,%206th%20Training%20Sqn%20AFC,%20October%201918.jpg"
"http://www.wingnutwings.com/ww/v46A6C38E/www/products/model_kitsets/32003/colour_schemes/D3540%20'K',%20Vickers%20built,%2040%20Sqn,%20Capt%20G.H.Lewis,%20April-May%201918.jpg"
"http://www.wingnutwings.com/ww/v46A6C38E/www/products/model_kitsets/32004/colour_schemes/B1112%20'F',%2022%20and%2016%20Sqns,%20Capt%20C%20Jones,%20Maj.%20C%20F%20A%20Portal%20MC,%201918.jpg"
"http://www.wingnutwings.com/ww/v46A6C38E/www/products/model_kitsets/32004/colour_schemes/B1330%20'2,%2039%20(Home%20Defence)%20Sqn,%201918.jpg"
"http://www.wingnutwings.com/ww/v46A6C38E/www/products/model_kitsets/32004/colour_schemes/C814%20'12',%2048%20Sqn,%20Capt.%20Keith%20Park%20(NZ),%20Lt.%20R%20H%20Little%20(Can),%202nd%20Lt.%20A%20C%20G%20Brown,%201918.jpg"
"http://www.wingnutwings.com/ww/v46A6C38E/www/products/model_kitsets/32004/colour_schemes/C4619%20'R',%20Lt.%20J%20R%20Gordon%20MC,%2062%20Sqn,%20April%201918.jpg"
"http://www.wingnutwings.com/ww/v46A6C38E/www/products/model_kitsets/32004/colour_schemes/D8084%20'T',%20Z%20Flight%2034%20Sqn,%20Italy,%20early%201918.jpg"
"http://www.wingnutwings.com/ww/v46A6C38E/www/products/model_kitsets/32005/colour_schemes/Gotha%20G.IV%20405~16,%20von%20Trotha,%20Kagohl%203,%20May%201917.jpg"
"http://www.wingnutwings.com/ww/v46A6C38E/www/products/model_kitsets/32005/colour_schemes/Gotha%20G.IV%20602~16,%20Walter%20Aschoff,%20Kagohl%203,%20May%20-%20September%201917%20.jpg"
"http://www.wingnutwings.com/ww/v46A6C38E/www/products/model_kitsets/32005/colour_schemes/Gotha%20G.IV%20624~16,%20Ernst%20Brandenburg,%20Kagohl%203,%20May%201917.jpg"
"http://www.wingnutwings.com/ww/v46A6C38E/www/products/model_kitsets/32005/colour_schemes/Gotha%20G.IV%20659~16,%20Kagohl%203,%20May%201917.jpg"
"http://www.wingnutwings.com/ww/v46A6C38E/www/products/model_kitsets/32005/colour_schemes/Gotha%20G.IV%20(LVG)%20991~16,%20MoRoTas,%20November%201917.jpg"
"http://www.wingnutwings.com/ww/v46A6C38E/www/products/model_kitsets/32006/colour_schemes/Pfalz%20D.IIIa%205983~17,%20Hans%20Joachim%20Buddecke,%20Jasta%2030,%20February%201918%20(13%20victories).jpg"
"http://www.wingnutwings.com/ww/v46A6C38E/www/products/model_kitsets/32006/colour_schemes/Pfalz%20D.IIIa%208143~17,%20Walter%20Ewers,%20Jasta%2077b,%20April%201917%20(8%20victories).jpg"
"http://www.wingnutwings.com/ww/v46A6C38E/www/products/model_kitsets/32006/colour_schemes/Pfalz%20D.IIIa,%20Hans%20Muller,%20Jasta%2018,%20April%201918%20(12%20victories).jpg"
"http://www.wingnutwings.com/ww/v46A6C38E/www/products/model_kitsets/32006/colour_schemes/Pfalz%20D.IIIa,%20Max%20Hitschler,%20Jasta%2018,%20late%201917.jpg"
"http://www.wingnutwings.com/ww/v46A6C38E/www/products/model_kitsets/32006/colour_schemes/Pfalz%20D.IIIa,%20Max%20Holtzem,%20Jasta%2016b,%20early%201918%20(2%20victories)..jpg"
"http://www.wingnutwings.com/ww/v46A6C38E/www/products/model_kitsets/32007/colour_schemes/E8483%20'IF',%20AMC%20built,%2099%20Sqn,%20October%201918.jpg.jpg"
"http://www.wingnutwings.com/ww/v46A6C38E/www/products/model_kitsets/32007/colour_schemes/E8538%20'E15',%20AMC%20built,%20C%20Sqn%20USMC,%20September%201918.jpg"
"http://www.wingnutwings.com/ww/v46A6C38E/www/products/model_kitsets/32007/colour_schemes/E8553%20'N',%20AMC%20built,%20155%20Sqn,%20October%201918.jpg"
"http://www.wingnutwings.com/ww/v46A6C38E/www/products/model_kitsets/32007/colour_schemes/F1010%20'Hyderabad%20No%2012A',%20Westland%20built,%20110%20Sqn,%20September%201918.jpg"
"http://www.wingnutwings.com/ww/v46A6C38E/www/products/model_kitsets/32007/colour_schemes/F1019%20'C',%20Westland%20built,%20205%20Sqn,%20September%201918.jpg"
"http://www.wingnutwings.com/ww/v46A6C38E/www/products/model_kitsets/32008/colour_schemes/Sopwith%20Triplane%20F4%204,%20Centre%20dAviation%20Maritime,%20Dec%201916%20to%20Jan%201917..jpg"
"http://www.wingnutwings.com/ww/v46A6C38E/www/products/model_kitsets/32008/colour_schemes/Sopwith%20Triplane%20N5427%2013,%20FHM%20Maynard,%201(N)%20Sqn,%20April%201917%20(6%20Victories)..jpg"
"http://www.wingnutwings.com/ww/v46A6C38E/www/products/model_kitsets/32008/colour_schemes/Sopwith%20Triplane%20N5429,%20Kurt%20Wusthoff,%20Jasta%204,%20September%201917%20(27%20victories)..jpg"
"http://www.wingnutwings.com/ww/v46A6C38E/www/products/model_kitsets/32008/colour_schemes/Sopwith%20Triplane%20N6301%20Dusty%20II,%20R%20McDonald,%208(N)%20Sqn,%20May%201917%20(8%20Victories)..jpg"
"http://www.wingnutwings.com/ww/v46A6C38E/www/products/model_kitsets/32008/colour_schemes/Sopwith%20Triplane%20N534%20F,%20FHM%20Maynard%20(6%20Victories),%20RP%20Minifie%20(21%20Victories),%20RS%20Dallas%20(32%20Victories),%201(N)%20Sqn,%20August%201917.jpg"
"http://www.wingnutwings.com/ww/v46A6C38E/www/products/model_kitsets/32009/colour_schemes/Albatros%20D.V%20D.2034~17,%20Eduard%20Ritter%20von%20Schleich,%20Jasta%2021,%20Sept%201917%20(35%20victories).jpg"
"http://www.wingnutwings.com/ww/v46A6C38E/www/products/model_kitsets/32009/colour_schemes/Albatros%20D.V%20D.2078~17,%20Ottomar%20Hagenmuller,%20MFJ%201,%20late%201917%20(killed%205%20Dec%201917).jpg"
"http://www.wingnutwings.com/ww/v46A6C38E/www/products/model_kitsets/32009/colour_schemes/Albatros%20D.V,%20Ernest%20Udet,%20Jasta%2037,%20mid-late%201917%20(62%20victories).jpg"
"http://www.wingnutwings.com/ww/v46A6C38E/www/products/model_kitsets/32009/colour_schemes/Albatros%20D.V,%20Fritz%20Rumey,%20Jasta%205,%20March%201917%20(45%20victories).jpg"
"http://www.wingnutwings.com/ww/v46A6C38E/www/products/model_kitsets/32009/colour_schemes/Albatros%20D.V,%20Otto%20Kissenberth,%20Jasta%2016b,%20mid%201917%20(20%20victories).jpg"
"http://www.wingnutwings.com/ww/v46A6C38E/www/products/model_kitsets/32010/colour_schemes/Hansa-Brandenburg%20W.29%202204,%20C3MG%20prototype,%20April%201918.jpg"
"http://www.wingnutwings.com/ww/v46A6C38E/www/products/model_kitsets/32010/colour_schemes/Hansa-Brandenburg%20W.29%202292,%20C2MGHFT,%20July%201918.jpg"
"http://www.wingnutwings.com/ww/v46A6C38E/www/products/model_kitsets/32010/colour_schemes/Hansa-Brandenburg%20W.29%202530%20C3MG,%20August-September%201918.jpg"
"http://www.wingnutwings.com/ww/v46A6C38E/www/products/model_kitsets/32010/colour_schemes/Hansa-Brandenburg%20W.29%202532%20C3MG,%20September-October%201918.jpg"
"http://www.wingnutwings.com/ww/v46A6C38E/www/products/model_kitsets/32010/colour_schemes/Hansa-Brandenburg%20W.29%202598%20C3MG,%20October-November%201918.jpg"
"http://www.wingnutwings.com/ww/v46A6C38E/www/products/model_kitsets/32011/colour_schemes/Fokker%20D.VII%20234~18,%20Fredrich%20Fritz%20Fredrichs,%20Jasta%2010,%20March-April%201918%20(21%20victories).jpg"
"http://www.wingnutwings.com/ww/v46A6C38E/www/products/model_kitsets/32011/colour_schemes/Fokker%20D.VII%20286~18,%20Willi%20Gabriel,%20Jasta%2011,%20June%201918%20(11%20victories).jpg"
"http://www.wingnutwings.com/ww/v46A6C38E/www/products/model_kitsets/32011/colour_schemes/Fokker%20D.VII%20368~18,%20Hans%20Schultz,%20Jasta%2018,%20June%201918%20(1%20victory).jpg"
"http://www.wingnutwings.com/ww/v46A6C38E/www/products/model_kitsets/32011/colour_schemes/Fokker%20D.VII,%20Gotthard%20Sachsenberg,%20MFJGr%201,%20October%201918%20(31%20victories).jpg"
"http://www.wingnutwings.com/ww/v46A6C38E/www/products/model_kitsets/32011/colour_schemes/Fokker%20D.VII%204301~18,%20Vzfw.Baurose%20(NOT%20Fritz%20Oppenhorst),%20Jasta%2071,%20November%201918.jpg"
"http://www.wingnutwings.com/ww/v46A6C38E/www/products/model_kitsets/32012/colour_schemes/A3474%20'18',%20Siddeley-Deasy%20built,%2034%20Sqn,%202lt%20CCF%20Osborn%20&%20Sgt%20J%20Lewis,%20May1917.jpg"
"http://www.wingnutwings.com/ww/v46A6C38E/www/products/model_kitsets/32012/colour_schemes/A4267%20'7',%20Austin%20built,%2052%20Sqn,%20February%20-%20March%201918.jpg"
"http://www.wingnutwings.com/ww/v46A6C38E/www/products/model_kitsets/32012/colour_schemes/B3420%20'K',%20Daimler%20built,%203%20Sqn%20AFC.jpg"
"http://www.wingnutwings.com/ww/v46A6C38E/www/products/model_kitsets/32012/colour_schemes/B5106%20'1A',%20Daimler%20built,%2059%20Sqn.jpg"
"http://www.wingnutwings.com/ww/v46A6C38E/www/products/model_kitsets/32012/colour_schemes/F3556%20'Ceylon%20No.1%20-%20A%20Paddy%20Bird%20from%20Ceylon',%20Daimler%20built,%20October%201918.jpg"
"http://www.wingnutwings.com/ww/v46A6C38E/www/products/model_kitsets/32013/colour_schemes/A6156%20'OS',%20Whitehead%20built,%2054%20Sqn,%20Lt%20O%20Stewart,%20April-May%201917.jpg"
"http://www.wingnutwings.com/ww/v46A6C38E/www/products/model_kitsets/32013/colour_schemes/A7327%20'1',%20Standard%20built,%2046%20Sqn,%20Capt%20S.H.Pratt,%20June-July%201917.jpg"
"http://www.wingnutwings.com/ww/v46A6C38E/www/products/model_kitsets/32013/colour_schemes/B1795%20'Z',%20Standard%20built,%2046%20Sqn,%20Lt%20A.F.%20Bird,%20August%201917.jpg"
"http://www.wingnutwings.com/ww/v46A6C38E/www/products/model_kitsets/32013/colour_schemes/D4165,%20Whitehead%20built,%20JAAS,%20Lt%20Kawaida,%20May%201921.jpg"
"http://www.wingnutwings.com/ww/v46A6C38E/www/products/model_kitsets/32013/colour_schemes/B1777%20Chin%20Chow,%20Standard%20built,%2046%20Sqn,%20Lt%20A.S.%20Lee,%20July-August%201917.jpg"
"http://www.wingnutwings.com/ww/v46A6C38E/www/products/model_kitsets/32014/colour_schemes/FE.2b%204852%20C6,%20%20G%20&%20J%20Weir%20built,%20B%20Irwin%20&%20FG%20Thierry,%2023%20Sqn,%20September%201916.jpg"
"http://www.wingnutwings.com/ww/v46A6C38E/www/products/model_kitsets/32014/colour_schemes/FE.2b%204909%20Baby%20Mine,%20G%20&%20J%20Weir%20built,%20JRB%20Savage%20&%20Robinson,%2025%20Sqn,%20June%201916.jpg"
"http://www.wingnutwings.com/ww/v46A6C38E/www/products/model_kitsets/32014/colour_schemes/FE.2b%206341%20Zanzibar%20No.1,%20RAF%20Built,%20D%20McMaster%20&%20Douglas%20Grinnell-Milne,%2025%20Sqn,%20May%201916.jpg"
"http://www.wingnutwings.com/ww/v46A6C38E/www/products/model_kitsets/32014/colour_schemes/FE.2b%206352%20Baroda%2015,%20RAF%20built,%20FG%20Pinder%20&%20EA%20Halford,%2023%20Sqn,%20March%201916.jpg"
"http://www.wingnutwings.com/ww/v46A6C38E/www/products/model_kitsets/32014/colour_schemes/FE.2b%20A857%20B1,%20G%20&%20J%20Weir%20built,%20FP%20Don%20&%20H%20Harris,%2022%20Sqn,%20June%201917.jpg"
"http://www.wingnutwings.com/ww/v46A6C38E/www/products/model_kitsets/32015/colour_schemes/Albatros%20D.Va%207161~17%20'Stropp',%20possibly%20Erich%20Gurgenz,%20Jasta%2046,%20April%201918%20(1%20victory).jpg"
"http://www.wingnutwings.com/ww/v46A6C38E/www/products/model_kitsets/32015/colour_schemes/Albatros%20D.Va%207237~17,%20Lothar%20Weiland%20Seefrontstaffel%201,%20July%201918.jpg"
"http://www.wingnutwings.com/ww/v46A6C38E/www/products/model_kitsets/32015/colour_schemes/Albatros%20D.Va%207353~17,%20Hans%20Joachim%20Hippel,%20Jasta%2071,%20August%201918%20(2%20victories).jpg"
"http://www.wingnutwings.com/ww/v46A6C38E/www/products/model_kitsets/32015/colour_schemes/Albatros%20D.Va,%20von%20Hunoldstein,%20Jasta%2014,%201918.jpg"
"http://www.wingnutwings.com/ww/v46A6C38E/www/products/model_kitsets/32015/colour_schemes/Albatros%20D.Va,%20Werner%20Niethammer,%20Jasta%2013,%201918%20(6%20victories).jpg"
"http://www.wingnutwings.com/ww/v46A6C38E/www/products/model_kitsets/32016/colour_schemes/C280%20'18',%20Standard%20built,%20War%20School%20Manston,%20Lt%20Goudy,%20June%201918.jpg"
"http://www.wingnutwings.com/ww/v46A6C38E/www/products/model_kitsets/32016/colour_schemes/N6171%20'Black%20Arrow',%20Sopwith%20built,%203(N)%20Sqn,%20FSLt.%20Pierce,%20April-May%201917.jpg"
"http://www.wingnutwings.com/ww/v46A6C38E/www/products/model_kitsets/32016/colour_schemes/N6185%20'ANZAC',%20Sopwith%20built,%204(N)%20Sqn,%20FSLt.%20C.J.%20Moir,%20April-May%201917.jpg"
"http://www.wingnutwings.com/ww/v46A6C38E/www/products/model_kitsets/32016/colour_schemes/N6205%20'Betty',%20Sopwith%20built,%203(N)%20Sqn,%20FSLt.%20J.S.T.%20Fall,%20April-May%201917.jpg"
"http://www.wingnutwings.com/ww/v46A6C38E/www/products/model_kitsets/32016/colour_schemes/N6442%20'Julia',%20Beardmore%20built%209901a%20Type,%20Walmer%20Defense%20Flt,%20FSLt.%20J.A.%20Shaw,%20June%201917.jpg"
"http://www.wingnutwings.com/ww/v46A6C38E/www/products/model_kitsets/32016/colour_schemes/N6453,%20Beardmore%20built%209901a%20Type,%20HMS%20Furious,%20S-Cdr%20E.H.%20Dunning,%20July-August%201917.jpg"
"http://www.wingnutwings.com/ww/v46A6C38E/www/products/model_kitsets/32017/colour_schemes/Roland%20D.IVb,%20Berg%20Wappen,%20mid%201918.jpg"
"http://www.wingnutwings.com/ww/v46A6C38E/www/products/model_kitsets/32017/colour_schemes/Roland%20D.VIb%207502~18%20P132,%20McCook%20Field,%20Dayton%20Ohio%20USA,%20May%20to%20June%201920.jpg"
"http://www.wingnutwings.com/ww/v46A6C38E/www/products/model_kitsets/32017/colour_schemes/Roland%20D.VIb%207504~18,%20November%201918.jpg"
"http://www.wingnutwings.com/ww/v46A6C38E/www/products/model_kitsets/32017/colour_schemes/Roland%20D.VIb%207535~18%20Marie,%20Oskar%20Freiherr%20von%20Boenigk,%20Freikorps%20late%201918-1919%20(26%20victories).jpg"
"http://www.wingnutwings.com/ww/v46A6C38E/www/products/model_kitsets/32017/colour_schemes/Roland%20D.VIb,%20Jasta%2059,%20mid%20to%20late%201918.jpg"
"http://www.wingnutwings.com/ww/v46A6C38E/www/products/model_kitsets/32018/colour_schemes/Fokker%20E.II%2033~15,%20Otto%20Kissenberth%20(20%20victories),%20Eduard%20Bohme%20(2%20victories),%20FFA%209b,%20January%201916..jpg"
"http://www.wingnutwings.com/ww/v46A6C38E/www/products/model_kitsets/32018/colour_schemes/Fokker%20E.II%2036~15,%20Ernst%20Freiherr%20von%20Althaus,%20KeK%20Vaux,%20December%201915%20(9%20victories)..jpg"
"http://www.wingnutwings.com/ww/v46A6C38E/www/products/model_kitsets/32018/colour_schemes/Fokker%20E.II%2068~15,%20Lt%20Bruckmann,%20AA%20Gaede,%20late%201915-%20early%201916..jpg"
"http://www.wingnutwings.com/ww/v46A6C38E/www/products/model_kitsets/32018/colour_schemes/Fokker%20E.II%2069~15,%20Kurt%20von%20Crailsheim,%20FFA%2053,%20October%201915%20(1%20victory)..jpg"
"http://www.wingnutwings.com/ww/v46A6C38E/www/products/model_kitsets/32018/colour_schemes/Fokker%20E.III%20105~15,%20Ernst%20Udet,%20KeK%20Habsheim,%20March%201916%20(62%20victories)%20(updated%2027%20March%202020).jpg"
"http://www.wingnutwings.com/ww/v46A6C38E/www/products/model_kitsets/32019/colour_schemes/Pfalz%20D.XII%201394~18,%20Jasta%2077b,%20July%201918.jpg"
"http://www.wingnutwings.com/ww/v46A6C38E/www/products/model_kitsets/32019/colour_schemes/Pfalz%20D.XII%201445~18,%20Jasta%2049,%201918.jpg"
"http://www.wingnutwings.com/ww/v46A6C38E/www/products/model_kitsets/32019/colour_schemes/Pfalz%20D.XII%202454~18%20KI,%20Jasta32b,%201918.jpg"
"http://www.wingnutwings.com/ww/v46A6C38E/www/products/model_kitsets/32019/colour_schemes/Pfalz%20D.XII%202454~18%20KI,%20Jasta32b,%201918%20optional%20scheme.jpg"
"http://www.wingnutwings.com/ww/v46A6C38E/www/products/model_kitsets/32019/colour_schemes/Pfalz%20D.XII%202486~18,%20Paul%20Vogel,%20Jasta%2023b,%20September%201918%20(1%20victory).jpg"
"http://www.wingnutwings.com/ww/v46A6C38E/www/products/model_kitsets/32019/colour_schemes/Pfalz%20D.XII%202600~18,%20Late%201918.jpg"
"http://www.wingnutwings.com/ww/v46A6C38E/www/products/model_kitsets/32020/colour_schemes/Sopwith%20Snipe%20E7992,%20South%20Eastern%20Area%20Flying%20Instructors%20School,%201918-19.jpg"
"http://www.wingnutwings.com/ww/v46A6C38E/www/products/model_kitsets/32020/colour_schemes/Sopwith%20Snipe%20E8015%20'E',%20E%20Mulcair,%20A%20Flight%2043%20Sqn,%20October-November%201918%20(2%20victories).jpg"
"http://www.wingnutwings.com/ww/v46A6C38E/www/products/model_kitsets/32020/colour_schemes/Sopwith%20Snipe%20E8057%201-4,%20B%20flight%2070%20Sqn,%201919.jpg"
"http://www.wingnutwings.com/ww/v46A6C38E/www/products/model_kitsets/32020/colour_schemes/Sopwith%20Snipe%20E8069%202,%20TCR%20Baker,%20B%20Flight%204%20Sqn%20AFC,%20October%201918%20(12%20victories).jpg"
"http://www.wingnutwings.com/ww/v46A6C38E/www/products/model_kitsets/32020/colour_schemes/Sopwith%20Snipe%20E8132%20D,%20A%20flight%20208%20Sqn,%20November%201918.jpg"
"http://www.wingnutwings.com/ww/v46A6C38E/www/products/model_kitsets/32021/colour_schemes/Fokker%20E.1%201~15,%20Otto%20Parschau,%20June-July%201915%20(8%20victories)..jpg"
"http://www.wingnutwings.com/ww/v46A6C38E/www/products/model_kitsets/32021/colour_schemes/Fokker%20E.1%205~15,%20Kurt%20Wintgens,%20FFA%206b,%20July%201915%20(19%20victories)..jpg"
"http://www.wingnutwings.com/ww/v46A6C38E/www/products/model_kitsets/32021/colour_schemes/Fokker%20E.1%208~15,%20Uffz.%20Kneiste,%20FFA%2062,%20August%201915..jpg"
"http://www.wingnutwings.com/ww/v46A6C38E/www/products/model_kitsets/32021/colour_schemes/Fokker%20E.1%2013~15,%20Max%20Immelmann%20(15%20victories)%20&%20Oswald%20Boelcke%20(40%20victories),%20FFA%2062,%20August%201915..jpg"
"http://www.wingnutwings.com/ww/v46A6C38E/www/products/model_kitsets/32021/colour_schemes/Fokker%20E.1%2014~15,%20Eduard%20Bohme,%20FFA%209b,%20August%201915%20(2%20victories)..jpg"
"http://www.wingnutwings.com/ww/v46A6C38E/www/products/model_kitsets/32022/colour_schemes/Roland%20D.VIa%203612~18,%20Hans%20Jungwirth,%20Jasta%2078b%20(1%20victory).jpg"
"http://www.wingnutwings.com/ww/v46A6C38E/www/products/model_kitsets/32022/colour_schemes/Roland%20D.VIa%203615~18,%201918.jpg"
"http://www.wingnutwings.com/ww/v46A6C38E/www/products/model_kitsets/32022/colour_schemes/Roland%20D.VIa,%20Otto%20Kissenberth,%20Jasta%2023b,%201918%20(20%20victories).jpg"
"http://www.wingnutwings.com/ww/v46A6C38E/www/products/model_kitsets/32022/colour_schemes/Roland%20D.VIa,%20Jasta%2023b,%201918.jpg"
"http://www.wingnutwings.com/ww/v46A6C38E/www/products/model_kitsets/32022/colour_schemes/Roland%20D.VIa%201222~18,%20Ludwig%20Marchner,%20Jasta%2032b,%20mid%201918%20(1%20victory).jpg"
"http://www.wingnutwings.com/ww/v46A6C38E/www/products/model_kitsets/32022/colour_schemes/Roland%20D.VIa,%20Emil%20Koch,%20Jasta%2032b,%20mid%201918%20(7%20victories).jpg"
"http://www.wingnutwings.com/ww/v46A6C38E/www/products/model_kitsets/32023/colour_schemes/Rumpler%20C.IV%206689~16,%20Alexander%20Decker,%20FA%20A%20276,%20Metz-Frescaty%20in%201917.jpg"
"http://www.wingnutwings.com/ww/v46A6C38E/www/products/model_kitsets/32023/colour_schemes/Rumpler%20C.IV%206758~16,%20Grobenhain%20early%201917.jpg"
"http://www.wingnutwings.com/ww/v46A6C38E/www/products/model_kitsets/32023/colour_schemes/Rumpler%20C.IV%208424~16%20Dalila,%201917.jpg"
"http://www.wingnutwings.com/ww/v46A6C38E/www/products/model_kitsets/32023/colour_schemes/Rumpler%20C.IV%208455~16,%20MFA%202,%20mid%20to%20late%201917.jpg"
"http://www.wingnutwings.com/ww/v46A6C38E/www/products/model_kitsets/32023/colour_schemes/Rumpler%20C.IV%208518~16(),%20FA%20209,%20mid%20to%20late%201917.jpg"
"http://www.wingnutwings.com/ww/v46A6C38E/www/products/model_kitsets/32023/colour_schemes/Rumpler%20C.IV,%20MFA,%20Varsenaere%20Flanders,%20August%201917.jpg"
"http://www.wingnutwings.com/ww/v46A6C38E/www/products/model_kitsets/32024/colour_schemes/Hannover%20Cl.II%209295~17%20White%202,%20Ltn.%20Ruhr(),%20FA%20A%20286b,%20late%201917.jpg"
"http://www.wingnutwings.com/ww/v46A6C38E/www/products/model_kitsets/32024/colour_schemes/Hannover%20Cl.II%209339~17%20Red%205,%20FA%207,%20winter%201917-18.jpg"
"http://www.wingnutwings.com/ww/v46A6C38E/www/products/model_kitsets/32024/colour_schemes/Hannover%20Cl.II%2013189~17,%20FA%20287b,%20early%201918.jpg"
"http://www.wingnutwings.com/ww/v46A6C38E/www/products/model_kitsets/32024/colour_schemes/Hannover%20Cl.II%2013274~17%20White%204,%20Schlasta%2025,%20mid%201918.jpg"
"http://www.wingnutwings.com/ww/v46A6C38E/www/products/model_kitsets/32024/colour_schemes/Hannover%20Cl.II%20(Rol)%20690~18,%20FEA%208,%20late%201918.jpg"
"http://www.wingnutwings.com/ww/v46A6C38E/www/products/model_kitsets/32025/colour_schemes/FE.2b%207018%20Punjab%2032%20Montgomery,%20Boulton%20&%20Paul%20built,%20LBF%20Morris%20&%20T%20Rees,%2011%20Sqn,%20September%201916.jpg"
"http://www.wingnutwings.com/ww/v46A6C38E/www/products/model_kitsets/32025/colour_schemes/FE.2b%207666%20B4,%20Boulton%20&%20Paul%20built,%20Training%20Squadron,%20June%201917.jpg"
"http://www.wingnutwings.com/ww/v46A6C38E/www/products/model_kitsets/32025/colour_schemes/FE.2b%20A778%20Alfred%20Muller%20Simpson,%20G%20&%20J%20Weir%20built,%20FH%20McNamara%20VC%20&%20SJ%20Hendy,%20CFS%20Australia,%20mid%201918.jpg"
"http://www.wingnutwings.com/ww/v46A6C38E/www/products/model_kitsets/32025/colour_schemes/FE.2b%20A852,%20G%20&%20J%20Weir%20built,%20LG%20Taylor%20&%20FE%20LeFevre,%20100%20Sqn,%20January%201918.jpg"
"http://www.wingnutwings.com/ww/v46A6C38E/www/products/model_kitsets/32025/colour_schemes/FE.2b%20A5650%20Jess,%20G%20&%20J%20Weir%20built,%20100%20Sqn%20and%20USAS,%20mid-late%201918.jpg"
"http://www.wingnutwings.com/ww/v46A6C38E/www/products/model_kitsets/32026/colour_schemes/A_Roland%20C.II,%20Eduard%20Ritter%20von%20Schleich%20(35%20victories),%20Johann%20Czermak%20(1%20victory),%20FFA%202b,%20January(QuestionMark)%20-%20March%201916.jpg"
"http://www.wingnutwings.com/ww/v46A6C38E/www/products/model_kitsets/32026/colour_schemes/B_Roland%20C.II%20Meerkatze,%20FFA%2018,%20Early%20to%20Mid%201916.jpg"
"http://www.wingnutwings.com/ww/v46A6C38E/www/products/model_kitsets/32026/colour_schemes/C_Roland%20C.II,%20Rudolf%20Rudi%20Windisch%20(22%20victories)%20&%20Maximillian%20von%20Cossel%20(1%20victory),%20FFA%2062,%20October%201916.jpg"
"http://www.wingnutwings.com/ww/v46A6C38E/www/products/model_kitsets/32026/colour_schemes/D_Roland%20C.II%20stripes,%20Kasta%208,%20Kagohl%20II,%20Mid%201916.jpg"
"http://www.wingnutwings.com/ww/v46A6C38E/www/products/model_kitsets/32026/colour_schemes/E_Roland%20C.II%20spots,%20Kasta%208,%20Kagohl%20II,%20Mid%201916.jpg"
"http://www.wingnutwings.com/ww/v46A6C38E/www/products/model_kitsets/32027/colour_schemes/Fokker%20D.VII%20(Alb)%20611~18,%20Uffz.%20Harbers,%20Jasta%2073,%20mid%201918%20(1%20victory).jpg"
"http://www.wingnutwings.com/ww/v46A6C38E/www/products/model_kitsets/32027/colour_schemes/Fokker%20D.VII%20(Alb)%20817~18%20Nickchen%20IV,%20Fritz%20Blumenthal,%20Jasta%2053,%20August%201918.jpg"
"http://www.wingnutwings.com/ww/v46A6C38E/www/products/model_kitsets/32027/colour_schemes/Fokker%20D.VII%20(Alb)%205324~18,%20Richard%20Kraut,%20Jasta%2063,%20October-November%201918%20(1%20victory).jpg"
"http://www.wingnutwings.com/ww/v46A6C38E/www/products/model_kitsets/32027/colour_schemes/Fokker%20D.VII%20(Alb)%20Bowke!,%20Hermann%20Pritsch,%20Jasta%2017,%20mid%201918%20(1%20victory).jpg"
"http://www.wingnutwings.com/ww/v46A6C38E/www/products/model_kitsets/32027/colour_schemes/Fokker%20D.VII%20(Alb),%20Carl%20Degelow,%20Jasta%2040,%20July-August%201918%20(30%20victories).jpg"
"http://www.wingnutwings.com/ww/v46A6C38E/www/products/model_kitsets/32028/colour_schemes/DH.2%205929,%20DM%20Tidmarsh%20(MC),%20A%20flight,%2024%20Sqn,%20April%201916%20(7%20victories).jpg"
"http://www.wingnutwings.com/ww/v46A6C38E/www/products/model_kitsets/32028/colour_schemes/DH.2%206000,%20SE%20Cowan%20(MC%20&%202%20bars),%20A%20flight,%2024%20Sqn,%20July%201916%20%20(7%20victories).jpg"
"http://www.wingnutwings.com/ww/v46A6C38E/www/products/model_kitsets/32028/colour_schemes/DH.2%207849,%20HJ%20Payn,%20AC%20Bolton%20&%20N%20Brearley,%20A%20Flight,%2029%20Sqn,%20September%201916.jpg"
"http://www.wingnutwings.com/ww/v46A6C38E/www/products/model_kitsets/32028/colour_schemes/DH.2%207907,%20LP%20Aizelwood%20(MC),%20B%20flight,%2032%20Sqn,%20September%201916%20(6%20victories).jpg"
"http://www.wingnutwings.com/ww/v46A6C38E/www/products/model_kitsets/32028/colour_schemes/DH.2%20A2540,%20N%20Middlebrook,%20A%20flight,%2024%20Sqn,%20October%201916.jpg"
"http://www.wingnutwings.com/ww/v46A6C38E/www/products/model_kitsets/32029/colour_schemes/Fokker%20E.IV%20122~15%20prototype,%20Anthony%20Fokker%20&%20Otto%20Parschau%20(8%20victories),%20September%201915..jpg"
"http://www.wingnutwings.com/ww/v46A6C38E/www/products/model_kitsets/32029/colour_schemes/Fokker%20E.IV%20127~15,%20Max%20Immelmann,%20FFA%2062,%20January%201916%20(15%20victories)..jpg"
"http://www.wingnutwings.com/ww/v46A6C38E/www/products/model_kitsets/32029/colour_schemes/Fokker%20E.IV%20161~16,%20Lt%20Muller,%20Kest%206,%20April%201917.jpg"
"http://www.wingnutwings.com/ww/v46A6C38E/www/products/model_kitsets/32029/colour_schemes/Fokker%20E.IV%20163~16,%20Kurt%20Student,%20AOK%203%20Fokkerstaffel,%20August%201916%20(6%20victories).jpg"
"http://www.wingnutwings.com/ww/v46A6C38E/www/products/model_kitsets/32029/colour_schemes/Fokker%20E.IV%20638~15,%20Karl%20Albert,%20Albert%20Oesterreicher,%20Alfred%20Prehn%20(1%20victory),%20Wilhelm%20Viereck%20(2%20victories)%20&%20Kurt%20Wintgens%20(19%20victories),%20KEK%203,%20mid-late%201916..jpg"
"http://www.wingnutwings.com/ww/v46A6C38E/www/products/model_kitsets/32030/colour_schemes/Fokker%20D.VII%20(OAW)%204198~18,%20Karl%20Ritscherle,%20Jasta%2060,%20mid%20to%20late%201918%20(8%20victories).jpg"
"http://www.wingnutwings.com/ww/v46A6C38E/www/products/model_kitsets/32030/colour_schemes/Fokker%20D.VII%20(OAW)%204523~18,%20Rudolf%20Stark,%20Jasta%2035b,%20late%201918%20(11%20victories).jpg"
"http://www.wingnutwings.com/ww/v46A6C38E/www/products/model_kitsets/32030/colour_schemes/Fokker%20D.VII%20(OAW),%20Franz%20Buchner,%20Jasta%2013,%20October-November%201918%20(40%20victories).jpg"
"http://www.wingnutwings.com/ww/v46A6C38E/www/products/model_kitsets/32030/colour_schemes/Fokker%20D.VII%20(OAW),%20Ulrich%20Neckel,%20Jasta%206,%20September-November%201918%20(30%20victories).jpg"
"http://www.wingnutwings.com/ww/v46A6C38E/www/products/model_kitsets/32030/colour_schemes/Fokker%20D.VII%20(OAW),%20Willhelm%20Leusch,%20Jasta%2019,%20October%201918%20(5%20victories).jpg"
"http://www.wingnutwings.com/ww/v46A6C38E/www/products/model_kitsets/32031/colour_schemes/Fokker%20D.VII%20F%20460~18,%20Eric%20Just,%20Jasta%2011,%20August%201918%20(6%20victories).jpg"
"http://www.wingnutwings.com/ww/v46A6C38E/www/products/model_kitsets/32031/colour_schemes/Fokker%20D.VII%20F%20501~18,%20Red%20W,%20Jasta%2026,%20November%201918.jpg"
"http://www.wingnutwings.com/ww/v46A6C38E/www/products/model_kitsets/32031/colour_schemes/Fokker%20D.VII%20F%204253~18,%20Ernst%20Udet,%20Jasta%204,%20September%201918%20(62%20victories).jpg"
"http://www.wingnutwings.com/ww/v46A6C38E/www/products/model_kitsets/32031/colour_schemes/Fokker%20D.VII%20F%204330~18,%20Egon%20Koepsch,%20Jasta%204,%20August%201918%20(9%20victories).jpg"
"http://www.wingnutwings.com/ww/v46A6C38E/www/products/model_kitsets/32031/colour_schemes/Fokker%20D.VII%20F,%20Karl%20Bolle,%20Jasta%202,%20November%201918%20(36%20victories).jpg"
"http://www.wingnutwings.com/ww/v46A6C38E/www/products/model_kitsets/32034/colour_schemes/AEG%20G.IV%20155~16,%20early%20to%20mid%201917.jpg"
"http://www.wingnutwings.com/ww/v46A6C38E/www/products/model_kitsets/32034/colour_schemes/AEG%20G.IV%20157~16,%20Kagohl%20IV,%20August%201917.jpg"
"http://www.wingnutwings.com/ww/v46A6C38E/www/products/model_kitsets/32034/colour_schemes/AEG%20G.IV%201118~16%20V,%20Bogohl%20IV(question),%201917%20to%20early%201918.jpg"
"http://www.wingnutwings.com/ww/v46A6C38E/www/products/model_kitsets/32034/colour_schemes/AEG%20G.IV%201125~16,%20Bogohl%20III(qm),%20Bosta%2015(qm),%20December%201917.jpg"
"http://www.wingnutwings.com/ww/v46A6C38E/www/products/model_kitsets/32034/colour_schemes/AEG%20G.IV%201131~16%20III,%20mid%201918.jpg"
"http://www.wingnutwings.com/ww/v46A6C38E/www/products/model_kitsets/32035/colour_schemes/DH.9%20B7620,%20JA%20Gray%20&%20JJ%20Comerford,%20A%20Flight,%20211%20Sqn,%20June%201918.jpg"
"http://www.wingnutwings.com/ww/v46A6C38E/www/products/model_kitsets/32035/colour_schemes/DH.9%20C6293%203,%20144%20Sqn,%20August%201918.jpg"
"http://www.wingnutwings.com/ww/v46A6C38E/www/products/model_kitsets/32035/colour_schemes/DH.9%20D2989%20Lobster,%2049%20TDS,%20February%201919.jpg"
"http://www.wingnutwings.com/ww/v46A6C38E/www/products/model_kitsets/32035/colour_schemes/DH.9%20D7211%20Spetsai,%20HNAS,%201919.jpg"
"http://www.wingnutwings.com/ww/v46A6C38E/www/products/model_kitsets/32035/colour_schemes/DH.9%20D7302%20N,%20RSS%20Ingram%20&%20AW%20Wyncoll,%20C%20Flight,%20108%20Sqn%20August%201918.jpg"
"http://www.wingnutwings.com/ww/v46A6C38E/www/products/model_kitsets/32035/colour_schemes/Bonus%20-%20DH.9%20H5636%20NZPAF%201924%20(0375-060).jpg"
"http://www.wingnutwings.com/ww/v46A6C38E/www/products/model_kitsets/32036/colour_schemes/A_Hansa-Brandenburg%20W.12%201184%20C3MG,%20Fl.Mt.Urban,%20Lt.Ehrhardt,%20C-Staffel,%20Zeebrugge,%20December%201917.jpg"
"http://www.wingnutwings.com/ww/v46A6C38E/www/products/model_kitsets/32036/colour_schemes/B-Hansa-Brandenburg%20W.12%201395%20C2MG,%20C-Staffel,%20Zeebrugge,%20Late%201917%20to%20Early%201918.jpg"
"http://www.wingnutwings.com/ww/v46A6C38E/www/products/model_kitsets/32036/colour_schemes/C-Hansa-Brandenburg%20W.12%201401%20C2MG,%20Sylt,%20Mid%201918.jpg"
"http://www.wingnutwings.com/ww/v46A6C38E/www/products/model_kitsets/32036/colour_schemes/D-Hansa-Brandenburg%20W.12%201407%20C2MG,%20Norderney,%20July%201918.jpg"
"http://www.wingnutwings.com/ww/v46A6C38E/www/products/model_kitsets/32036/colour_schemes/E-Hansa-Brandenburg%20W.12%201410%20C2MG,%20Zeebrugge,%20February%201918.jpg"
"http://www.wingnutwings.com/ww/v46A6C38E/www/products/model_kitsets/32037/colour_schemes/Rumpler%20C.IV%201421~17,%20mid%20to%20late%201917.jpg"
"http://www.wingnutwings.com/ww/v46A6C38E/www/products/model_kitsets/32037/colour_schemes/Rumpler%20C.IV%201449~17,%20Black%206,%20mid%20to%20late%201917.jpg"
"http://www.wingnutwings.com/ww/v46A6C38E/www/products/model_kitsets/32037/colour_schemes/Rumpler%20C.IV%208037~17,%20Scarab,%20mid%20to%20late%201918.jpg"
"http://www.wingnutwings.com/ww/v46A6C38E/www/products/model_kitsets/32037/colour_schemes/Rumpler%20C.IV%208231~17,%20late%201917%20to%20early%201918.jpg"
"http://www.wingnutwings.com/ww/v46A6C38E/www/products/model_kitsets/32037/colour_schemes/Rumpler%20C.IV,%20Good%20People,%20late%201917%20to%20early%201918.jpg"
"http://www.wingnutwings.com/ww/v46A6C38E/www/products/model_kitsets/32038/colour_schemes/Salmson%202-A2%20251%204,%20SAL%2016,%201918.jpg"
"http://www.wingnutwings.com/ww/v46A6C38E/www/products/model_kitsets/32038/colour_schemes/Salmson%202-A2%20381%204,%20SAL%2028,%201918.jpg"
"http://www.wingnutwings.com/ww/v46A6C38E/www/products/model_kitsets/32038/colour_schemes/Salmson%202-A2%20602%20Le%20Gone,%20SAL%2061,%20Late%201918%20to%20February%201919.jpg"
"http://www.wingnutwings.com/ww/v46A6C38E/www/products/model_kitsets/32038/colour_schemes/Salmson%202-A2,%20Col.Hamonic(questionmark),%20SAL%20122,%20late%201917%20to%20early%201918.jpg"
"http://www.wingnutwings.com/ww/v46A6C38E/www/products/model_kitsets/32038/colour_schemes/Type%20Otsu%20Model%201%20Reconnaissance%20Aircraft%201123,%20mid%20to%20late%201920s.jpg"
"http://www.wingnutwings.com/ww/v46A6C38E/www/products/model_kitsets/32040/colour_schemes/A_DFW%20C.V%20(LVG)%205203~16,%20Habsheim,%20April%20to%20May%201917.jpg"
"http://www.wingnutwings.com/ww/v46A6C38E/www/products/model_kitsets/32040/colour_schemes/B_DFW%20C.V%20(Av)%205920~16%20'Red%206',%20Kurt%20Weser(question),%20FA%20(A)%20275(question),%20September%201917.jpg"
"http://www.wingnutwings.com/ww/v46A6C38E/www/products/model_kitsets/32040/colour_schemes/C_DFW%20C.V%20(Av)%205927~16,%20Hans%20Huppertz%20&%20Friedrich%20Neumuller,%20FA%2018,%20April%201917.jpg"
"http://www.wingnutwings.com/ww/v46A6C38E/www/products/model_kitsets/32040/colour_schemes/D_DFW%20C.V%20'Grenade',%20FA%2048b,%201917%20to%20early1918.jpg"
"http://www.wingnutwings.com/ww/v46A6C38E/www/products/model_kitsets/32040/colour_schemes/E_DFW%20C.V%20'Stripes',%20FA%20(A)%20282(question),%201917%20to%20early1918.jpg"
"http://www.wingnutwings.com/ww/v46A6C38E/www/products/model_kitsets/32041/colour_schemes/A_Roland%20C.IIa%20White%207,%20Kasta%202,%20Kagohl%201,%20Late%201916%20-%20Early%201917.jpg"
"http://www.wingnutwings.com/ww/v46A6C38E/www/products/model_kitsets/32041/colour_schemes/B_Roland%20C.IIa%20(Li)%20Black%20III,%20Vfw%20Hesse,%20Schusta%2013,%20Early%201917.jpg"
"http://www.wingnutwings.com/ww/v46A6C38E/www/products/model_kitsets/32041/colour_schemes/C_Roland%20C.IIa%20(Li)%203645~16,%20Hans%20Joachim%20von%20Hippel%20(1%20victory),%20Beobachter%20Schule%20Coln,%20Early%20-%20mid%201917.jpg"
"http://www.wingnutwings.com/ww/v46A6C38E/www/products/model_kitsets/32041/colour_schemes/D_Roland%20C.IIa%20White%2021,%20Otto%20Burgermeister,%20Kasta%2021,%20Kagohl%20IV,%20November-December%201916.jpg"
"http://www.wingnutwings.com/ww/v46A6C38E/www/products/model_kitsets/32041/colour_schemes/E_Roland%20C.IIa%20circles,%20Kagohl%20II%20(question%20mark),%20Late%201916%20-%20Early%201917.jpg"
"http://www.wingnutwings.com/ww/v46A6C38E/www/products/model_kitsets/32042/colour_schemes/A_AEG%20G.IV%20848~17%20White%201,%20Bogohl%208b,%20May%201918.jpg"
"http://www.wingnutwings.com/ww/v46A6C38E/www/products/model_kitsets/32042/colour_schemes/B_AEG%20G.IV%20850~17%20White%202,%20Bogohl%208b,%20June%201918.jpg"
"http://www.wingnutwings.com/ww/v46A6C38E/www/products/model_kitsets/32042/colour_schemes/C_AEG%20G.IV%20White%20VII,%20mid%20to%20late%201918.jpg"
"http://www.wingnutwings.com/ww/v46A6C38E/www/products/model_kitsets/32042/colour_schemes/D_AEG%20G.IV%20567~18%20White%207,%20Bogohl%208b,%20mid%20to%20late%201918.jpg"
"http://www.wingnutwings.com/ww/v46A6C38E/www/products/model_kitsets/32042/colour_schemes/E_AEG%20G.IV%20574~18%20White%20IV,%20November%201918.jpg"
"http://www.wingnutwings.com/ww/v46A6C38E/www/products/model_kitsets/32045/colour_schemes/A%20-%20Gotha%20G.1%2010~15,%20Fliegerersatz%20Abteilung%207%20Sonderstaffel%20S.1,%20July%20to%20September%201915.jpg"
"http://www.wingnutwings.com/ww/v46A6C38E/www/products/model_kitsets/32045/colour_schemes/B%20-%20Gotha%20G.1%2011~15,%20Fliegerersatz%20Abteilung%207%20Sonderstaffel%20S.1,%20late%201915%20to%20early%201916.jpg"
"http://www.wingnutwings.com/ww/v46A6C38E/www/products/model_kitsets/32045/colour_schemes/C%20-%20Gotha%20G.1%2013~15,%20Feld%20Fliegerabteilung%2037,%20September%201915.jpg"
"http://www.wingnutwings.com/ww/v46A6C38E/www/products/model_kitsets/32045/colour_schemes/D%20-%20Gotha%20G.1%2041~15,%20Kagohl%201,%20late%201915.jpg"
"http://www.wingnutwings.com/ww/v46A6C38E/www/products/model_kitsets/32045/colour_schemes/E%20-%20Gotha%20G.1%2042~15%20Feodora,%20Fliegerersatz%20Abteilung%203,%20September%201916.jpg"
"http://www.wingnutwings.com/ww/v46A6C38E/www/products/model_kitsets/32046/colour_schemes/Albatros%20B.II%20210~13,%20Albatros%20built,%201915-1916-210.jpg"
"http://www.wingnutwings.com/ww/v46A6C38E/www/products/model_kitsets/32046/colour_schemes/Albatros%20B.II,%20MAN%20built,%20April%201915.jpg"
"http://www.wingnutwings.com/ww/v46A6C38E/www/products/model_kitsets/32046/colour_schemes/Albatros%20B.II%20676~15,%201916.jpg"
"http://www.wingnutwings.com/ww/v46A6C38E/www/products/model_kitsets/32046/colour_schemes/Albatros%20B.II%20847~15,%201915-1916.jpg"
"http://www.wingnutwings.com/ww/v46A6C38E/www/products/model_kitsets/32046/colour_schemes/Albatros%20B.II%201131~15,%201916.jpg"
"http://www.wingnutwings.com/ww/v46A6C38E/www/products/model_kitsets/32047/colour_schemes/A_Albatros%20D.Va%20(OAW)%206553~17,%20Jasta%2073,%20mid%201918.jpg"
"http://www.wingnutwings.com/ww/v46A6C38E/www/products/model_kitsets/32047/colour_schemes/B_Albatros%20D.Va%20(OAW)questionmark,%20Jasta%2018,%20May%201918.jpg"
"http://www.wingnutwings.com/ww/v46A6C38E/www/products/model_kitsets/32047/colour_schemes/C_Albatros%20D.Va%20(OAW),%20Hermann%20Leptien,%20Jasta%2063,%20mid%201918%20(7%20victories).jpg"
"http://www.wingnutwings.com/ww/v46A6C38E/www/products/model_kitsets/32047/colour_schemes/D_Albatros%20D.Va%20(OAW),%20Hans%20von%20Gossel,%20Jasta%2071,%20mid%201918%20(1%20victory).jpg"
"http://www.wingnutwings.com/ww/v46A6C38E/www/products/model_kitsets/32047/colour_schemes/E_Albatros%20D.Va%20(OAW),%20Friedrich%20Ritter%20von%20Roth,%20Jasta%2023b,%20early%201918%20(28%20victories).jpg"
"http://www.wingnutwings.com/ww/v46A6C38E/www/products/model_kitsets/32048/colour_schemes/Fokker%20A.III%2003.43,%20Flik%208%20&%20Flik%2019,%20Austro-Hungarian%20Army,%20May%201916..jpg"
"http://www.wingnutwings.com/ww/v46A6C38E/www/products/model_kitsets/32048/colour_schemes/Fokker%20A.III%20'A8',%20Austro-Hungarian%20Navy,%201916..jpg"
"http://www.wingnutwings.com/ww/v46A6C38E/www/products/model_kitsets/32048/colour_schemes/Fokker%20E.III%20246~16,%20Max%20Immelmann,%20KeK%20Douai,%20June%201916%20(15%20victories)..jpg"
"http://www.wingnutwings.com/ww/v46A6C38E/www/products/model_kitsets/32048/colour_schemes/Fokker%20E.III%20405~15,%20Otto%20Pfalzer%20(3%20victories),%20Ernst%20Udet%20(62%20victories),%20KeK%20Habsheim,%20March%201916..jpg"
"http://www.wingnutwings.com/ww/v46A6C38E/www/products/model_kitsets/32048/colour_schemes/Fokker%20E.III%20608~15,%20Josef%20Jacobs,%20Fokkerstaffel-West,%20May%201916%20(48%20victories)..jpg"
"http://www.wingnutwings.com/ww/v46A6C38E/www/products/model_kitsets/32048/colour_schemes/Fokker%20E.III,%20Manfred%20von%20Richthofen,%20Kasta%208,%20June%201916%20(80%20victories).jpg"
"http://www.wingnutwings.com/ww/v46A6C38E/www/products/model_kitsets/32049/colour_schemes/Halberstadt%20Cl.II%205720~17%203%20Martha%20&%20Else,%20Max%20Niemann%20&%20Rudolf%20Kolodzicj,%20Royal%20Prussian%20Schlasta%2021,%20October%201918.jpg"
"http://www.wingnutwings.com/ww/v46A6C38E/www/products/model_kitsets/32049/colour_schemes/Halberstadt%20Cl.II%204%20Rosi,%20Royal%20Bavarian%20Schusta%2023b,%20early%201918.jpg"
"http://www.wingnutwings.com/ww/v46A6C38E/www/products/model_kitsets/32049/colour_schemes/Halberstadt%20Cl.II%204,%20Royal%20Bavarian%20Schusta%2026b,%20early%201917.jpg"
"http://www.wingnutwings.com/ww/v46A6C38E/www/products/model_kitsets/32049/colour_schemes/Halberstadt%20Cl.II%201,%20Fridolin%20Redenbach,%20Royal%20Bavarian%20Schusta%2027b,%20September%201917.jpg"
"http://www.wingnutwings.com/ww/v46A6C38E/www/products/model_kitsets/32049/colour_schemes/Halberstadt%20Cl.II%204%20Dora,%20Royal%20Bavarian%20Schusta%2027b,%20March%201918.jpg"
"http://www.wingnutwings.com/ww/v46A6C38E/www/products/model_kitsets/32050/colour_schemes/A-Felixstowe%20F.2a%20N4081%20C,%20Saunders%20built,%20240%20Sqn%20RAF,%20Calshot,%20late%201918.jpg"
"http://www.wingnutwings.com/ww/v46A6C38E/www/products/model_kitsets/32050/colour_schemes/B-Felixstowe%20F.2a%20N4283%202,%20Saunders%20built,%20GE%20Livock%20&%20R%20Leckie,%20Great%20Yarmouth,%20April%201918.jpg"
"http://www.wingnutwings.com/ww/v46A6C38E/www/products/model_kitsets/32050/colour_schemes/C-Felixstowe%20F.2a%20N4291,%20Saunders%20built,%20USNAS,%20Killingholme,%20July%201918.jpg"
"http://www.wingnutwings.com/ww/v46A6C38E/www/products/model_kitsets/32050/colour_schemes/D-Felixstowe%20F.2a%20N4510,%20AMC~May,%20Harden%20&%20May%20built,%20RNAS,%20Felixstowe,%20March%201918.jpg"
"http://www.wingnutwings.com/ww/v46A6C38E/www/products/model_kitsets/32050/colour_schemes/E-Felixstowe%20F.2a%20N4541,%20AMC~May,%20Harden%20&%20May%20built,%20232%20Sqn%20RAF,%20Felixstowe,%20August%201918.jpg"
"http://www.wingnutwings.com/ww/v46A6C38E/www/products/model_kitsets/32053/colour_schemes/Gotha%20UWD%20120,%20See%20Flieger%20Abteilung%201,%20March%201916.jpg"
"http://www.wingnutwings.com/ww/v46A6C38E/www/products/model_kitsets/32053/colour_schemes/Gotha%20UWD%20120,%20See%20Flieger%20Abteilung%201,%20March%201916%20-%20top%20view.jpg"
"http://www.wingnutwings.com/ww/v46A6C38E/www/products/model_kitsets/32053/colour_schemes/Gotha%20UWD%20120,%20See%20Flieger%20Abteilung%201,%20March%201916%20-%20bottom%20view.jpg"
"http://www.wingnutwings.com/ww/v46A6C38E/www/products/model_kitsets/32054/colour_schemes/Sopwith%20Snipe%20E6351%20GS%20Sapozhnikov,%201st%20Soviet%20Fighter%20Aviaotryad,%201920%20(5%20victories).jpg"
"http://www.wingnutwings.com/ww/v46A6C38E/www/products/model_kitsets/32054/colour_schemes/Sopwith%20Snipe%20E6544,%2017%20Sqn,%20Hawkinge,%201924.jpg"
"http://www.wingnutwings.com/ww/v46A6C38E/www/products/model_kitsets/32054/colour_schemes/Sopwith%20Snipe%20E6964,%2056%20Sqn,%20Hawkinge,%201923.jpg"
"http://www.wingnutwings.com/ww/v46A6C38E/www/products/model_kitsets/32054/colour_schemes/Sopwith%20Snipe%20E8198%20U,%20C%20Flight%204%20Sqn%20AFC,%20Bickendorf,%20January-February%201919.jpg"
"http://www.wingnutwings.com/ww/v46A6C38E/www/products/model_kitsets/32054/colour_schemes/Sopwith%20Snipe%20F2367%201-2,%20B%20flight%2070%20Sqn,%20Bickendorf,%20March-April%201919.jpg"
"http://www.wingnutwings.com/ww/v46A6C38E/www/products/model_kitsets/32055/colour_schemes/A_Sopwith%20Pup%20N6179%20Baby%20Mine,%20TC%20Vernon%20(1%20victory)%20&%20AW%20Carter%20(17%20victories),%20B%20Flight%203(N)%20Sqn%20RNAS,%20March%20to%20April%201917.jpg"
"http://www.wingnutwings.com/ww/v46A6C38E/www/products/model_kitsets/32055/colour_schemes/B_Sopwith%20Pup%20N6200%20Bobs,%20AM%20Shook,%20B%20Flight%204(N)%20Sqn%20RNAS,%20April%20to%20May%201917%20(12%20victories).jpg"
"http://www.wingnutwings.com/ww/v46A6C38E/www/products/model_kitsets/32055/colour_schemes/C_Sopwith%20Pup%20B2192,%20HH%20Balfour%20&%20EL%20Foot,%20School%20of%20Special%20Flying%20Gosford,%20August%20to%20September%201917.jpg"
"http://www.wingnutwings.com/ww/v46A6C38E/www/products/model_kitsets/32055/colour_schemes/D-Sopwith%20Pup%20B5904%20A%201,%2061(HD)%20Sqn%20RFC,%20September%201917.jpg"
"http://www.wingnutwings.com/ww/v46A6C38E/www/products/model_kitsets/32055/colour_schemes/E_Sopwith%20Pup%20B5906%20Impikoff%205,%2044(HD)%20Sqn%20RFC~RAF%201918.jpg"
"http://www.wingnutwings.com/ww/v46A6C38E/www/products/model_kitsets/32057/colour_schemes/A_DFW%20C.V%20799~17,%20Albert%20Hahnel%20&%20Eugen%20Mann,%20FA%207,%20July%201917.jpg"
"http://www.wingnutwings.com/ww/v46A6C38E/www/products/model_kitsets/32057/colour_schemes/B_DFW%20C.V%20(LVG)%202164~17%20'Star',%20FA%2010,%20July%201917.jpg"
"http://www.wingnutwings.com/ww/v46A6C38E/www/products/model_kitsets/32057/colour_schemes/C_DFW%20C.V%20(Halb)%202523~17,%20mid%201917%20to%20early%201918.jpg"
"http://www.wingnutwings.com/ww/v46A6C38E/www/products/model_kitsets/32057/colour_schemes/D_DFW%20C.V%20(Av)%20287~18%20'Butterfly',%20FA%20(A)%20219,%20May%201918.jpg"
"http://www.wingnutwings.com/ww/v46A6C38E/www/products/model_kitsets/32057/colour_schemes/E_DFW%20C.V%20'Gretel%20-%20Lo',%20FA%20(A)%20239,%20mid%201918.jpg"
"http://www.wingnutwings.com/ww/v46A6C38E/www/products/model_kitsets/32058/colour_schemes/A_Jeannin%20Stahltaube%20172~14,%20Lt.%20Fritzlohn(),%20Adlershof-Johannisthal,%20late%201914%20to%20early%201915.jpg"
"http://www.wingnutwings.com/ww/v46A6C38E/www/products/model_kitsets/32058/colour_schemes/B_Jeannin%20Stahltaube%20180~14,%20Deutches%20Technikmuseum%20Berlin.jpg"
"http://www.wingnutwings.com/ww/v46A6C38E/www/products/model_kitsets/32058/colour_schemes/C_Jeannin%20Stahltaube%20271~14,%20Emil%20Wendler,%20Adlershof-Johannisthal,%20late%201916%20to%20early%201917.jpg"
"http://www.wingnutwings.com/ww/v46A6C38E/www/products/model_kitsets/32058/colour_schemes/D_Jeannin%20Stahltaube%20283~14,%20Adlershof-Johannisthal,%201915.jpg"
"http://www.wingnutwings.com/ww/v46A6C38E/www/products/model_kitsets/32058/colour_schemes/E_Jeannin%20Stahltaube%20319~14,%20Armee-Flug-Park%209b,%20early%201915.jpg"
"http://www.wingnutwings.com/ww/v46A6C38E/www/products/model_kitsets/32059/colour_schemes/Salmson%202-A2%201319%20'6'%20'Old%20Carolina%20IV',%2012th%20Aero%20Sqn,%20DH%20Arthur%20&%20HT%20Fleeson%20(2%20victories),%20Late%201918.jpg"
"http://www.wingnutwings.com/ww/v46A6C38E/www/products/model_kitsets/32059/colour_schemes/Salmson%202-A2%20'17',%20186th%20Aero%20Sqn,%20HC%20McCaslin,%20Mid%201919.jpg"
"http://www.wingnutwings.com/ww/v46A6C38E/www/products/model_kitsets/32059/colour_schemes/Salmson%202-A2%20'18'%20(3%20victories),%2091st%20Aero%20Sqn,%20K%20Douglass,%20LC%20Hammond%20(1%20victory)%20&%20AM%20Seymour,%20Late%201918.jpg"
"http://www.wingnutwings.com/ww/v46A6C38E/www/products/model_kitsets/32059/colour_schemes/Salmson%202-A2%20'24',%201st%20Aero%20Sqn,%20AJ%20Coyle%20(1%20victory),%20JW%20Corley%20(3%20victories),%20AE%20Easterbrook%20(5%20victories),%20October-November%201918.jpg"
"http://www.wingnutwings.com/ww/v46A6C38E/www/products/model_kitsets/32059/colour_schemes/Salmson%202-A2%205464%20'8',%201st%20Aero%20Sqn,%20WP%20Erwin%20(8%20victories),%20AE%20Easterbrook%20(5%20victories),%20June%201919%20option.jpg"
"http://www.wingnutwings.com/ww/v46A6C38E/www/products/model_kitsets/32060/colour_schemes/Bristol%20%20F.2b%20Fighter%20Mk.II%20F4392%20'B2',%20Aboukir%20Egypt,%201926.jpg"
"http://www.wingnutwings.com/ww/v46A6C38E/www/products/model_kitsets/32060/colour_schemes/Bristol%20%20F.2b%20Fighter%20Mk.II%20J6647%20'K',%20Gerard%20Combe,%2031%20Sqn,%20Dardoni%20India,%201923.jpg"
"http://www.wingnutwings.com/ww/v46A6C38E/www/products/model_kitsets/32060/colour_schemes/Bristol%20%20F.2b%20Fighter%20Mk.II%20'19',%20Irish%20Free%20State%20Air%20Corps,%201925.jpg"
"http://www.wingnutwings.com/ww/v46A6C38E/www/products/model_kitsets/32060/colour_schemes/Bristol%20%20F.2b%20Fighter%20Mk.III%207122,%20NZPAF,%201930s.jpg"
"http://www.wingnutwings.com/ww/v46A6C38E/www/products/model_kitsets/32060/colour_schemes/Bristol%20%20F.2b%20Fighter%20Mk.II%20F4435,%20208%20Sqn,%20Ismailia%20Egypt,%201925..jpg"
"http://www.wingnutwings.com/ww/v46A6C38E/www/products/model_kitsets/32061/colour_schemes/DH.9a%20E9939,%20Vulcan%20built,%208%20Sqn%20RAF,%20Iraq,%20mid%201920s.jpg"
"http://www.wingnutwings.com/ww/v46A6C38E/www/products/model_kitsets/32061/colour_schemes/DH.9a%20H3510%20'L',%20Westland%20built,%20AC%20Jones-Williams%20&%20Benson,%20B%20flight,%208%20Sqn%20RAF,%20Iraq,%201923%20to%201924.jpg"
"http://www.wingnutwings.com/ww/v46A6C38E/www/products/model_kitsets/32061/colour_schemes/DH.9a%20H3552,%20Vulcan%20built,%2039%20Sqn%20RAF,%20UK,%20June-July%201923.jpg"
"http://www.wingnutwings.com/ww/v46A6C38E/www/products/model_kitsets/32061/colour_schemes/DH.9a%20A1-17,%20Berwick%20built,%20E%20Flight,%201%20FTS%20RAAF,%20Australia,%201922.jpg"
"http://www.wingnutwings.com/ww/v46A6C38E/www/products/model_kitsets/32061/colour_schemes/Polikarpov%20R-1%20'AMYPA',%2019th%20Special%20Aviation%20Group,%20USSR,%201929.jpg"
"http://www.wingnutwings.com/ww/v46A6C38E/www/products/model_kitsets/32062/colour_schemes/Halberstadt%20Cl.II%20V,%20Royal%20Prussian%20Schusta%2013,%20March%201918.jpg"
"http://www.wingnutwings.com/ww/v46A6C38E/www/products/model_kitsets/32062/colour_schemes/Halberstadt%20Cl.II%202,%20Brunhilde,%20Karl%20Prim,%20Royal%20Bavarian%20Schlasta%2027b,%20mid%20to%20late%201918.jpg"
"http://www.wingnutwings.com/ww/v46A6C38E/www/products/model_kitsets/32062/colour_schemes/Halberstadt%20Cl.II,%20Friedrich%20Barchert,%20Royal%20Prussian%20Schlasta%2021,%20June%20to%20July%201918%20update.jpg"
"http://www.wingnutwings.com/ww/v46A6C38E/www/products/model_kitsets/32062/colour_schemes/Halberstadt%20Cl.II%20Lowe,%20Marine%20Schlasta%201,%20October%201918.jpg"
"http://www.wingnutwings.com/ww/v46A6C38E/www/products/model_kitsets/32062/colour_schemes/Halberstadt%20Cl.II%20Marichen,%20Schlasta%2015,%20mid%20to%20late%201918.jpg"
"http://www.wingnutwings.com/ww/v46A6C38E/www/products/model_kitsets/32065/colour_schemes/A_Junkers%20D.1%205185~18,%20Aldlershof,%20October%201918.jpg"
"http://www.wingnutwings.com/ww/v46A6C38E/www/products/model_kitsets/32065/colour_schemes/B_Junkers%20D.1%205185~18%20Bander,%20Hombeek,%20MFJG,%20November%201918.jpg"
"http://www.wingnutwings.com/ww/v46A6C38E/www/products/model_kitsets/32065/colour_schemes/C_Junkers%20D.1%205184~18%20Weisser%20Schwanz,%20Hombeek,%20MFJG,%20November%201918.jpg"
"http://www.wingnutwings.com/ww/v46A6C38E/www/products/model_kitsets/32065/colour_schemes/D_Junkers%20D.1%205188~18%2011,%20October%201918.jpg"
"http://www.wingnutwings.com/ww/v46A6C38E/www/products/model_kitsets/32065/colour_schemes/E_Junkers%20D.1,%20Gotthard%20Sachsenberg%20(31%20victories),%20Theodore%20Osterkamp%20(38%20victories)%20&%20Josef%20Jacobs%20(48%20victories),%20FA%20416,%20September-October%201919.jpg"
"http://www.wingnutwings.com/ww/v46A6C38E/www/products/model_kitsets/32066/colour_schemes/A-Felixstowe%20F.2a%20N4296,%20SE%20Saunders%20built,%20Felixstowe,%20Late%201918.jpg"
"http://www.wingnutwings.com/ww/v46A6C38E/www/products/model_kitsets/32066/colour_schemes/B-Felixstowe%20F.2a%20N4297,%20SE%20Saunders%20built,%20Felixstowe,%20November%201918.jpg"
"http://www.wingnutwings.com/ww/v46A6C38E/www/products/model_kitsets/32066/colour_schemes/C-Felixstowe%20F.2a%20N4545,%20AMC~May,%20Harden%20&%20May%20built,%20230%20Sqn%20RAF,%20Felixstowe,%20August%201918.jpg"
"http://www.wingnutwings.com/ww/v46A6C38E/www/products/model_kitsets/32066/colour_schemes/D-Felixstowe%20F.2a%20N4099,%20SE%20Saunders%20built,%20Felixstowe,%20Late%201918.jpg"
"http://www.wingnutwings.com/ww/v46A6C38E/www/products/model_kitsets/32066/colour_schemes/E-Felixstowe%20F.2a%20N4465,%20SE%20Saunders%20built,%20Killingholme,%20Late%201918.jpg"
"http://www.wingnutwings.com/ww/v46A6C38E/www/products/model_kitsets/32067/colour_schemes/A_Fokker%20D.VII%20262~18,%20Emil%20Thuy,%20Jasta%2028w,%20Mid%201918%20(35%20victories).jpg"
"http://www.wingnutwings.com/ww/v46A6C38E/www/products/model_kitsets/32067/colour_schemes/B_Fokker%20D.VII,%20Rudolf%20Berthold,%20Jasta%2015~JG%20II,%20Mid%201918%20(44%20victories).jpg"
"http://www.wingnutwings.com/ww/v46A6C38E/www/products/model_kitsets/32067/colour_schemes/C_Fokker%20D.VII,%20Hugo%20Schafer,%20Jasta%2015%20(11%20victories)%20&%20Max%20Kliefoth,%20Jasta%2019%20(3%20victories),%20Late%201918.jpg"
"http://www.wingnutwings.com/ww/v46A6C38E/www/products/model_kitsets/32067/colour_schemes/D_Fokker%20D.VII,%20Reinhold%20von%20Benz%20Jasta%2078b,%20August%201918%20(1%20victory).jpg"
"http://www.wingnutwings.com/ww/v46A6C38E/www/products/model_kitsets/32067/colour_schemes/E_Fokker%20D.VII,%20Bruno%20Loerzer,%20Jasta%2026~JG%20III,%20November%201918%20(44%20victories).jpg"
"http://www.wingnutwings.com/ww/v46A6C38E/www/products/model_kitsets/32070/colour_schemes/A_Sopwith%20F.1%20Camel%20B6390.jpg"
"http://www.wingnutwings.com/ww/v46A6C38E/www/products/model_kitsets/32070/colour_schemes/B_Sopwith%20F.1%20Camel%20B7190.jpg"
"http://www.wingnutwings.com/ww/v46A6C38E/www/products/model_kitsets/32070/colour_schemes/C_Sopwith%20F.1%20Camel%20B7270.jpg"
"http://www.wingnutwings.com/ww/v46A6C38E/www/products/model_kitsets/32070/colour_schemes/D_Sopwith%20F.1%20Camel%20B7275.jpg"
"http://www.wingnutwings.com/ww/v46A6C38E/www/products/model_kitsets/32070/colour_schemes/E_Sopwith%20F.1%20Camel%20F5234.jpg"
"http://www.wingnutwings.com/ww/v46A6C38E/www/products/model_kitsets/32071/colour_schemes/A_Sopwith%20F.1%20Camel%20B5417.jpg"
"http://www.wingnutwings.com/ww/v46A6C38E/www/products/model_kitsets/32071/colour_schemes/B_Sopwith%20F.1%20Camel%20B5423.jpg"
"http://www.wingnutwings.com/ww/v46A6C38E/www/products/model_kitsets/32071/colour_schemes/C_Sopwith%20F.1%20Camel%20C1555.jpg"
"http://www.wingnutwings.com/ww/v46A6C38E/www/products/model_kitsets/32071/colour_schemes/D_Sopwith%20F.1%20Camel%20F2137.jpg"
"http://www.wingnutwings.com/ww/v46A6C38E/www/products/model_kitsets/32071/colour_schemes/E_Sopwith%20F.1%20Camel%20F2141.jpg"
"http://www.wingnutwings.com/ww/v46A6C38E/www/products/model_kitsets/32072/colour_schemes/A_Sopwith%20F.1%20Camel%20D8245.jpg"
"http://www.wingnutwings.com/ww/v46A6C38E/www/products/model_kitsets/32072/colour_schemes/B_Sopwith%20F.1%20Camel%20D8250.jpg"
"http://www.wingnutwings.com/ww/v46A6C38E/www/products/model_kitsets/32072/colour_schemes/C_Sopwith%20F.1%20Camel%204.jpg"
"http://www.wingnutwings.com/ww/v46A6C38E/www/products/model_kitsets/32072/colour_schemes/D_Sopwith%20F.1%20Camel%2018.jpg"
"http://www.wingnutwings.com/ww/v46A6C38E/www/products/model_kitsets/32072/colour_schemes/E_Sopwith%20F.1%20Camel%20F1430%2013.jpg"
"http://www.wingnutwings.com/ww/v46A6C38E/www/products/model_kitsets/32072/colour_schemes/F_Sopwith%20F.1%20Camel%20F1471%2012.jpg"
"http://www.wingnutwings.com/ww/v46A6C38E/www/products/model_kitsets/32073/colour_schemes/A_Sopwith%205F.1%20Dolphin%20C3785,%20RNAS%20Dover,%20early%201918.jpg"
"http://www.wingnutwings.com/ww/v46A6C38E/www/products/model_kitsets/32073/colour_schemes/B_Sopwith%205F.1%20Dolphin%20C3803%20Red%20Star%206,%20SARD,%20March%201918.jpg"
"http://www.wingnutwings.com/ww/v46A6C38E/www/products/model_kitsets/32073/colour_schemes/C_Sopwith%205F.1%20Dolphin%20%20C3824%20U,%20JW%20Pearson%20(12%20victories)%20&%20CE%20Walton%20(1%20victory),%20C%20Flight%2023%20Sqn%20RAF,%20May%20to%20July%201918.jpg"
"http://www.wingnutwings.com/ww/v46A6C38E/www/products/model_kitsets/32073/colour_schemes/D_Sopwith%205F.1%20Dolphin%20C3879%20Q,%20RB%20Bannermann,%20C%20Flight%2079%20Sqn%20RAF,%20August%20to%20November%201918%20(17%20victories).jpg"
"http://www.wingnutwings.com/ww/v46A6C38E/www/products/model_kitsets/32073/colour_schemes/E_Sopwith%205F.1%20Dolphin%20%20C8163%20A,%20HJ%20Larkin,%20A%20Flight%2087%20Sqn%20RAF,%20August%20to%20November%201918%20(11%20victories).jpg"
"http://www.wingnutwings.com/ww/v46A6C38E/www/products/model_kitsets/32074/colour_schemes/A_Sopwith%20F.1%20Camel%20B3834.jpg"
"http://www.wingnutwings.com/ww/v46A6C38E/www/products/model_kitsets/32074/colour_schemes/B_Sopwith%20F.1%20Camel%20B3889.jpg"
"http://www.wingnutwings.com/ww/v46A6C38E/www/products/model_kitsets/32074/colour_schemes/C_Sopwith%20F.1%20Camel%20B3893.jpg"
"http://www.wingnutwings.com/ww/v46A6C38E/www/products/model_kitsets/32074/colour_schemes/D_Sopwith%20F.1%20Camel%20B6289.jpg"
"http://www.wingnutwings.com/ww/v46A6C38E/www/products/model_kitsets/32074/colour_schemes/E_Sopwith%20F.1%20Camel%20B6313.jpg"
"http://www.wingnutwings.com/ww/v46A6C38E/www/products/model_kitsets/32074/colour_schemes/F_Sopwith%20F.1%20Camel%20B7406.jpg"
"http://www.wingnutwings.com/ww/v46A6C38E/www/products/model_kitsets/32076/colour_schemes/A_Sopwith%202F.1%20Camel%20N6602.jpg"
"http://www.wingnutwings.com/ww/v46A6C38E/www/products/model_kitsets/32076/colour_schemes/B_Sopwith%202F.1%20Camel%20N6764.jpg"
"http://www.wingnutwings.com/ww/v46A6C38E/www/products/model_kitsets/32076/colour_schemes/C_Sopwith%202F.1%20Camel%20N6812.jpg"
"http://www.wingnutwings.com/ww/v46A6C38E/www/products/model_kitsets/32076/colour_schemes/D_Sopwith%202F.1%20Camel%20N6822.jpg"
"http://www.wingnutwings.com/ww/v46A6C38E/www/products/model_kitsets/32076/colour_schemes/E_Sopwith%202F.1%20Camel%20N6823.jpg"
"http://www.wingnutwings.com/ww/v46A6C38E/www/products/model_kitsets/32079/colour_schemes/A_Hannover%20Cl.II%209276~17%20White%205.jpg"
"http://www.wingnutwings.com/ww/v46A6C38E/www/products/model_kitsets/32079/colour_schemes/B_Hannover%20Cl.II%209280~17%20Comet.jpg"
"http://www.wingnutwings.com/ww/v46A6C38E/www/products/model_kitsets/32079/colour_schemes/C_Hannover%20Cl.II%209301~17%20White%204.jpg"
"http://www.wingnutwings.com/ww/v46A6C38E/www/products/model_kitsets/32079/colour_schemes/D_Hannover%20Cl.II%209398~17%202.jpg"
"http://www.wingnutwings.com/ww/v46A6C38E/www/products/model_kitsets/32079/colour_schemes/E_Hannover%20Cl.II%20(Rol)%20622~18%20%20White%202.jpg"
"http://www.wingnutwings.com/ww/v46A6C38E/www/products/model_kitsets/32601/colour_schemes/A_Albatros%20D.V%201177~17,%20May%201917.jpg"
"http://www.wingnutwings.com/ww/v46A6C38E/www/products/model_kitsets/32601/colour_schemes/B_Albatros%20D.V%201177~17%20red%20body,%20Manfred%20von%20Richthofen,%20Jasta%2011,%20late%20June%201917.jpg"
"http://www.wingnutwings.com/ww/v46A6C38E/www/products/model_kitsets/32601/colour_schemes/C_Albatros%20D.V%20,%20Manfred%20von%20Richthofen,%20Jasta%2011,%202%20to%206%20July%201917.jpg"
"http://www.wingnutwings.com/ww/v46A6C38E/www/products/model_kitsets/32601/colour_schemes/D_Albatros%20D.V%202059~17,%20Manfred%20von%20Richthofen,%20Jasta11,%2019%20August%201917.jpg"
"http://www.wingnutwings.com/ww/v46A6C38E/www/products/model_kitsets/32601/colour_schemes/E2_Albatros%20D.V,%20Manfred%20von%20Richthofen,%20Jasta%2011,%20late%201917.jpg"
"http://www.wingnutwings.com/ww/v46A6C38E/www/products/model_kitsets/32601/colour_schemes/bonus1_Albatros%20D.III%20,%20Manfred%20on%20Richthofen,%20Jasta%2011,%20January%201917%20to%20April%201917.jpg"
"http://www.wingnutwings.com/ww/v46A6C38E/www/products/model_kitsets/32601/colour_schemes/bonus2_Fokker%20Dr.1%20127~17,%20Manfred%20von%20Richthofen,%20Jasta%2011,%2027%20March%201918%20to%206%20April%201918.jpg"
"http://www.wingnutwings.com/ww/v46A6C38E/www/products/model_kitsets/32603/colour_schemes/Fokker%20E.II%2037~15,%20Max%20Immelmann,%20Feldfleiger%20Abteilung%2062,%20October%20to%20November%201915%20(15%20victories)%20side.jpg"
"http://www.wingnutwings.com/ww/v46A6C38E/www/products/model_kitsets/32603/colour_schemes/Fokker%20E.II%2037~15,%20Max%20Immelmann,%20Feldfleiger%20Abteilung%2062,%20October%20to%20November%201915%20(15%20victories)%20top.jpg"
"http://www.wingnutwings.com/ww/v46A6C38E/www/products/model_kitsets/32603/colour_schemes/Fokker%20E.II%2037~15,%20Max%20Immelmann,%20Feldfleiger%20Abteilung%2062,%20October%20to%20November%201915%20(15%20victories)%20bottom.jpg"
"http://www.wingnutwings.com/ww/v46A6C38E/www/products/model_kitsets/32605/colour_schemes/Fokker%20D.VII%20F%205125~18%20Hermann%20Goring,%20Jagdgeschwader%201,%20October%201918%20(22%20victories)%20-%20side.jpg"
"http://www.wingnutwings.com/ww/v46A6C38E/www/products/model_kitsets/32605/colour_schemes/Fokker%20D.VII%20F%205125~18%20Hermann%20Goring,%20Jagdgeschwader%201,%20October%201918%20(22%20victories)%20-%20top.jpg"
"http://www.wingnutwings.com/ww/v46A6C38E/www/products/model_kitsets/32605/colour_schemes/Fokker%20D.VII%20F%205125~18%20Hermann%20Goring,%20Jagdgeschwader%201,%20October%201918%20(22%20victories)%20-%20bottom.jpg"
"http://www.wingnutwings.com/ww/v46A6C38E/www/products/model_kitsets/32606/colour_schemes/AMC%20DH.2%205964,%20Lanoe%20Hawker,%2024%20Squadron%20RFC,%2023%20November%201916%20(7%20victories)%20side.jpg"
"http://www.wingnutwings.com/ww/v46A6C38E/www/products/model_kitsets/32606/colour_schemes/AMC%20DH.2%205964,%20Lanoe%20Hawker,%2024%20Squadron%20RFC,%2023%20November%201916%20(7%20victories)%20top.jpg"
"http://www.wingnutwings.com/ww/v46A6C38E/www/products/model_kitsets/32606/colour_schemes/AMC%20DH.2%205964,%20Lanoe%20Hawker,%2024%20Squadron%20RFC,%2023%20November%201916%20(7%20victories)%20bottom.jpg"
"http://www.wingnutwings.com/ww/v46A6C38E/www/products/model_kitsets/32607/colour_schemes/Sopwith%20Triplane%20N533%20'Black%20Maria',%20Raymond%20Collishaw,%2010%20Squadron%20RNAS,%20July%201917%20(60%20victories)%20side.jpg"
"http://www.wingnutwings.com/ww/v46A6C38E/www/products/model_kitsets/32607/colour_schemes/Sopwith%20Triplane%20N533%20'Black%20Maria',%20Raymond%20Collishaw,%2010%20Squadron%20RNAS,%20July%201917%20(60%20victories)%20top.jpg"
"http://www.wingnutwings.com/ww/v46A6C38E/www/products/model_kitsets/32607/colour_schemes/Sopwith%20Triplane%20N533%20'Black%20Maria',%20Raymond%20Collishaw,%2010%20Squadron%20RNAS,%20July%201917%20(60%20victories)%20bottom.jpg"
"http://www.wingnutwings.com/ww/v46A6C38E/www/products/model_kitsets/32608/colour_schemes/Sopwith%207F.1%20Snipe%20E8102,%20William%20Barker,%20201%20Squadron%20RAF,%2027%20October%201918%20(50%20victories)%20-%20side.jpg"
"http://www.wingnutwings.com/ww/v46A6C38E/www/products/model_kitsets/32608/colour_schemes/Sopwith%207F.1%20Snipe%20E8102,%20William%20Barker,%20201%20Squadron%20RAF,%2027%20October%201918%20(50%20victories)%20-%20top.jpg"
"http://www.wingnutwings.com/ww/v46A6C38E/www/products/model_kitsets/32608/colour_schemes/Sopwith%207F.1%20Snipe%20E8102,%20William%20Barker,%20201%20Squadron%20RAF,%2027%20October%201918%20(50%20victories)%20-%20bottom.jpg"
"http://www.wingnutwings.com/ww/v46A6C38E/www/products/model_kitsets/32701/colour_schemes/A_Albatros%20D.V%202065~17,%20Richard%20Flashar%20(2%20victories)%20July%201917%20&%20Hans%20Joachim%20von%20Hippel%20(2%20victories),%20February%201918,%20Jasta%205.jpg"
"http://www.wingnutwings.com/ww/v46A6C38E/www/products/model_kitsets/32701/colour_schemes/B_Albatros%20D.V,%20Paul%20Baumer,%20Jasta%205,%20July%201917%20(43%20victories).jpg"
"http://www.wingnutwings.com/ww/v46A6C38E/www/products/model_kitsets/32701/colour_schemes/C_Albatros%20D.V%20Steuerwappen,%20Carl%20Lwensen,%20Jasta%205,%20July%201917.jpg"
"http://www.wingnutwings.com/ww/v46A6C38E/www/products/model_kitsets/32701/colour_schemes/D_Albatros%20D.V,%20Richard%20Dilcher%20(3%20victories),%20Jasta%205,%20July%201917.jpg"
"http://www.wingnutwings.com/ww/v46A6C38E/www/products/model_kitsets/32701/colour_schemes/E_Albatros%20D.V%20Stallion%20Jasta%205,%20July%201917.jpg"
"http://www.wingnutwings.com/ww/v46A6C38E/www/products/model_kitsets/32701/colour_schemes/F_Albatros%20D.V,%20Otto%20Konnecke,%20Jasta%205,%20July%201917%20(35%20victories).jpg"
"http://www.wingnutwings.com/ww/v46A6C38E/www/products/model_kitsets/32701/colour_schemes/G_Albatros%20D.V%20Eagle~Phonix,%20Alfred%20Sturm,%20Jasta%205,%20July%201917%20(1%20victory).jpg"
"http://www.wingnutwings.com/ww/v46A6C38E/www/products/model_kitsets/32701/colour_schemes/H_Albatros%20D.V,%20Ltn%20Wolf,%20Jasta%205,%20July%201917%20(2%20victories).jpg"
"http://www.wingnutwings.com/ww/v46A6C38E/www/products/model_kitsets/32701/colour_schemes/I_Albatros%20D.V%20Gauntlet,%20Richard%20Flashar,%20Jasta%205,%20April-May%201918%20(2%20victories).jpg"
"http://www.wingnutwings.com/ww/v46A6C38E/www/products/model_kitsets/32701/colour_schemes/J_Albatros%20D.Va,%205284~17,%20Josef%20Mai,%20Jasta%205,%20Late%201917%20to%20early%201918%20(30%20victories).jpg"
"http://www.wingnutwings.com/ww/v46A6C38E/www/products/model_kitsets/32701/colour_schemes/K_Albatros%20D.Va,%205284~17,%20Josef%20Mai,%20Jasta%205,%20April%20to%20May%201918%20(30%20victories).jpg"
"http://www.wingnutwings.com/ww/v46A6C38E/www/products/model_kitsets/32801/colour_schemes/Felixstowe%20F.2a%20N4305,%20EA%20Mossop,%20G%20Hodson,%20GL%20Greenwood,%20RRN%20Cooper,%20WHD%20Dingley,%20Great%20Yarmouth,%2031%20July%201918.jpg"
"http://www.wingnutwings.com/ww/v46A6C38E/www/products/model_kitsets/32801/colour_schemes/Hansa-Brandenburg%20W.29%202512,%20Friedrich%20Christiansen%20(13%20victories)%20&%20Bernhard%20Wladicka,%201C%20Staffel,%2031%20July%201918.jpg"
"http://www.wingnutwings.com/ww/v46A6C38E/www/products/model_kitsets/32802/colour_schemes/Fokker%20E.III%20635~15,%20Kampfeinsitzerkommando%20(KeK)%20Vaux,%20Somme%201916.jpg"
"http://www.wingnutwings.com/ww/v46A6C38E/www/products/model_kitsets/32802/colour_schemes/DH.2%207851,%20C%20flight,%2032%20Sqn,%20WGS%20Curphey%20(6%20victories),%20mid-late%201916%20&%20EGS%20Wagner,%20January%201917.jpg"
"http://www.wingnutwings.com/ww/v46A6C38E/www/products/model_kitsets/32803/colour_schemes/A_Sopwith%20F.1%20Camel%20E7190.jpg"
"http://www.wingnutwings.com/ww/v46A6C38E/www/products/model_kitsets/32803/colour_schemes/B_Sopwith%20F.1%20Camel%20E7241.jpg"
"http://www.wingnutwings.com/ww/v46A6C38E/www/products/model_kitsets/32803/colour_schemes/C_LVG%20C.VI%207243~18.jpg"
"http://www.wingnutwings.com/ww/v46A6C38E/www/products/model_kitsets/32804/colour_schemes/Halberstadt%20Cl.II%2015432~17%20III,%20Schlasta%2013,%209%20June%201918.jpg"
"http://www.wingnutwings.com/ww/v46A6C38E/www/products/model_kitsets/32804/colour_schemes/RE.8%20D4689%20P,%20RC%20Armstrong%20&%20FJ%20Mart,%203%20Sqn%20AFC,%209%20June%201918.jpg"
"http://www.wingnutwings.com/ww/v46A6C38E/www/products/model_kitsets/32901/colour_schemes/Albatros%20D.V%202171~17%20Oliver%20Beaulieu-Marconnay%20-%20Jasta%2018%20late%201917.jpg"
"http://www.wingnutwings.com/ww/v46A6C38E/www/products/model_kitsets/32901/colour_schemes/Albatros%20D.V%204594~17%20Paul%20Strahle%20-%20Jasta%2018%20&%2057%201917-18.jpg"
"http://www.wingnutwings.com/ww/v46A6C38E/www/products/model_kitsets/32901/colour_schemes/Albatros%20D.V%20Josef%20Veltjens%20-%20Jasta%2018%20early%201918.jpg"
"http://www.wingnutwings.com/ww/v46A6C38E/www/products/model_kitsets/32901/colour_schemes/Albatros%20D.V%20Kurt%20Monnington%20-%20Jasta%2015%20&%2018%201917-18.jpg"
"http://www.wingnutwings.com/ww/v46A6C38E/www/products/model_kitsets/32901/colour_schemes/Albatros%20D.V,%20'Horseshoe%20&%20Clover',%20Jasta%2018,%201917-18.%20Revised%20October%202011%20due%20to%20new%20information%20received.jpg"
"http://www.wingnutwings.com/ww/v46A6C38E/www/products/model_kitsets/32902/colour_schemes/Albatros%20D.V%201055~17,%20Rudolf%20(Rudi)%20Windisch,%20Jasta%2032b,%20September%20-%20November%201917%20(22%20victories).jpg"
"http://www.wingnutwings.com/ww/v46A6C38E/www/products/model_kitsets/32902/colour_schemes/Albatros%20D.V,%202263~17,%20Otto%20Kissemberth,%20Jasta%2023b,%20late%201917%20(20%20victories).jpg"
"http://www.wingnutwings.com/ww/v46A6C38E/www/products/model_kitsets/32902/colour_schemes/Albatros%20D.V,%20Hans%20Auer,%20Jasta%2032b,%20September%201917%20(5%20victories).jpg"
"http://www.wingnutwings.com/ww/v46A6C38E/www/products/model_kitsets/32902/colour_schemes/Albatros%20D.V,%20Karl%20Schattauer,%20Jasta%2016b,%20early%201918%20(9%20victories).jpg"
"http://www.wingnutwings.com/ww/v46A6C38E/www/products/model_kitsets/32902/colour_schemes/Albatros%20D.V,%20Theodor%20Rumpel%20(5%20victories)%20&%20Ludwig%20Hanstein%20(16%20victories),%20Jasta%2016b,%20August%201917.jpg"
"http://www.wingnutwings.com/ww/v46A6C38E/www/products/model_kitsets/32903/colour_schemes/Albatros%20D.V%201187~17,%20Vfw%20Bansmer,%20Jasta%2010,%201917%20(2%20victories).jpg"
"http://www.wingnutwings.com/ww/v46A6C38E/www/products/model_kitsets/32903/colour_schemes/Albatros%20D.V%202122~17,%20Lightning%20Bolt,%20Jasta%2019,%201917-18.jpg"
"http://www.wingnutwings.com/ww/v46A6C38E/www/products/model_kitsets/32903/colour_schemes/Albatros%20D.V%204476~17,%20Ernst%20Udet,%20Jasta%2037,%20September%201917%20(62%20victories).jpg"
"http://www.wingnutwings.com/ww/v46A6C38E/www/products/model_kitsets/32903/colour_schemes/Albatros%20D.V,%202284~17,%20Hans%20Waldhausen,%20Jasta%2037,%20late%20summer%201917%20(6%20victories)..jpg"
"http://www.wingnutwings.com/ww/v46A6C38E/www/products/model_kitsets/32903/colour_schemes/Albatros%20D.V,%20Adolf%20Schreder,%20Jasta%2017,%201917-18%20(1%20victory).jpg"
"http://www.wingnutwings.com/ww/v46A6C38E/www/products/model_kitsets/32904/colour_schemes/Albatros%20D.V%202058~17,%20Alwin%20Thurm,%20Jasta%2031,%20late%201917%20(5%20victories).jpg"
"http://www.wingnutwings.com/ww/v46A6C38E/www/products/model_kitsets/32904/colour_schemes/Albatros%20D.V%20Hans%20Hermann%20von%20Budde,%20Jasta%2015,%20July%201917%20(1%20victory).jpg"
"http://www.wingnutwings.com/ww/v46A6C38E/www/products/model_kitsets/32904/colour_schemes/Albatros%20D.V,%20Claus%20von%20Waldow,%20Jasta%2015,%20March%201918.jpg"
"http://www.wingnutwings.com/ww/v46A6C38E/www/products/model_kitsets/32904/colour_schemes/Albatros%20D.V,%20Heinrich%20Gontermann,%20Jasta%2015,%20July%201917%20(39%20victories).jpg"
"http://www.wingnutwings.com/ww/v46A6C38E/www/products/model_kitsets/32904/colour_schemes/Albatros%20D.V,%20Karl%20Haustein,%20Jasta%2037,%201917-1918.jpg"
"http://www.wingnutwings.com/ww/v46A6C38E/www/products/model_kitsets/32904/colour_schemes/Albatros%20D.V,%20Kurt%20Monnington,%20Jasta%2015,%201917%20(8%20victories).jpg"
"http://www.wingnutwings.com/ww/v46A6C38E/www/products/model_kitsets/32905/colour_schemes/Albatros%20D.V%201154~17,%20Max%20Ritter%20von%20Muller,%20Jasta%2028,%20late%201917%20(36%20victories).jpg"
"http://www.wingnutwings.com/ww/v46A6C38E/www/products/model_kitsets/32905/colour_schemes/Albatros%20D.V%202329~17,%20Otto%20Fruhner,%20Jasta%2026,%20mid%201917%20(27%20victories).jpg"
"http://www.wingnutwings.com/ww/v46A6C38E/www/products/model_kitsets/32905/colour_schemes/Albatros%20D.V,%202359~17,%20Otto%20Hohmuth,%20Jasta%2023b,%20March%201918%20(4%20victories).jpg"
"http://www.wingnutwings.com/ww/v46A6C38E/www/products/model_kitsets/32905/colour_schemes/Albatros%20D.V,%20Karl%20Meierdirks,%20Jasta%2012,%20July-August%201917%20(2%20victories).jpg"
"http://www.wingnutwings.com/ww/v46A6C38E/www/products/model_kitsets/32905/colour_schemes/Albatros%20D.V,%20Otto%20Konnecke,%20Jasta%205,%20July%201917%20(35%20Victories).jpg"
"http://www.wingnutwings.com/ww/v46A6C38E/www/products/model_kitsets/32906/colour_schemes/Albatros%20D.Va%205787~17%20stripes,%20Jasta%2076b,%20Late%201917%20to%20early%201918.jpg"
"http://www.wingnutwings.com/ww/v46A6C38E/www/products/model_kitsets/32906/colour_schemes/Albatros%20D.Va%20OAW%206633~17,%20Michael%20Sigmann,%20Jasta%2078b,%20April-August%201918.jpg"
"http://www.wingnutwings.com/ww/v46A6C38E/www/products/model_kitsets/32906/colour_schemes/Albatros%20D.Va,%20Eduard%20Ritter%20von%20Schleich,%20JG8b,%20March%201918%20(35%20Victories).jpg"
"http://www.wingnutwings.com/ww/v46A6C38E/www/products/model_kitsets/32906/colour_schemes/Albatros%20D.Va,%20Hans%20Bohning,%20Jasta%2076b,%20(17%20victories)%20&%20Karl%20Hopf,%201918.jpg"
"http://www.wingnutwings.com/ww/v46A6C38E/www/products/model_kitsets/32906/colour_schemes/Albatros%20D.Va,%20Lt.%20Diem,%20Jasta%2076b,%20February-March%201917%20(1%20victory).jpg"
"http://www.wingnutwings.com/ww/v46A6C38E/www/products/model_kitsets/32907/colour_schemes/Albatros%20D.Va,%20Ernst%20Udet,%20Jasta%2037,%20late%201917%20(62%20victories).jpg"
"http://www.wingnutwings.com/ww/v46A6C38E/www/products/model_kitsets/32907/colour_schemes/Albatros%20D.Va,%20Max%20Nather,%20Jasta%2062,%20mid%201918%20(26%20victories)..jpg"
"http://www.wingnutwings.com/ww/v46A6C38E/www/products/model_kitsets/32907/colour_schemes/Albatros%20D.Va,%20White%201,%20Karl%20Haustein,%20Jasta%2037,%20late%201917.jpg"
"http://www.wingnutwings.com/ww/v46A6C38E/www/products/model_kitsets/32907/colour_schemes/Albatros%20D.Va,%20White%207,%20Jasta%2037%20late%201917.jpg"
"http://www.wingnutwings.com/ww/v46A6C38E/www/products/model_kitsets/32907/colour_schemes/Albatros%20D.Va,%20White%209,%20Jasta%2037,%20late%201917.jpg"
"http://www.wingnutwings.com/ww/v46A6C38E/www/products/model_kitsets/32908/colour_schemes/Albatros%20D.Va%20(OAW)%206981~17,%20Red%203,%20FA45b,%20Mid-late%201918.jpg"
"http://www.wingnutwings.com/ww/v46A6C38E/www/products/model_kitsets/32908/colour_schemes/Albatros%20D.Va%205815~17,%20Gerhard%20Hubrich,%20MFJ%20IV,%20September-November%201918%20(12%20victories).jpg"
"http://www.wingnutwings.com/ww/v46A6C38E/www/products/model_kitsets/32908/colour_schemes/Albatros%20D.Va%207098~17,%20Gisi,%20Jasta%2017,%20Early%201918.jpg"
"http://www.wingnutwings.com/ww/v46A6C38E/www/products/model_kitsets/32908/colour_schemes/Albatros%20D.Va%207161~17,%20National%20Air%20&%20Space%20Museum,%201979%20-%20present.jpg"
"http://www.wingnutwings.com/ww/v46A6C38E/www/products/model_kitsets/32908/colour_schemes/Albatros%20D.Va%207343~17,%20Kurt%20Jentsch,%20Jasta%2061,%20June-August%201918%20(7%20victories).jpg"
"http://www.wingnutwings.com/ww/v46A6C38E/www/products/model_kitsets/32909/colour_schemes/Pfalz%20D.IIIa%201296~18,%20Jasta%2056,%20Late%201918.jpg"
"http://www.wingnutwings.com/ww/v46A6C38E/www/products/model_kitsets/32909/colour_schemes/Pfalz%20D.IIIa%208178~17,%20Rudolf%20Stark,%20Jasta%2034b,%20May%201918%20(11%20victories).jpg"
"http://www.wingnutwings.com/ww/v46A6C38E/www/products/model_kitsets/32909/colour_schemes/Pfalz%20D.IIIa%208284~17,%20Jakob%20Pollinger,%20Jasta%2077b,%20May%201918.jpg"
"http://www.wingnutwings.com/ww/v46A6C38E/www/products/model_kitsets/32909/colour_schemes/Pfalz%20D.IIIa%208304~17,%20Late%201918.jpg"
"http://www.wingnutwings.com/ww/v46A6C38E/www/products/model_kitsets/32909/colour_schemes/Pfalz%20D.IIIa,%20Jasta%2037,%20Late%201918.jpg"
"http://www.wingnutwings.com/ww/v46A6C38E/www/products/model_kitsets/32909/colour_schemes/Pfalz%20D.IIIa,%20Marine%20Feld%20Jasta,%20Mid-late%201918.jpg"
"http://www.wingnutwings.com/ww/v46A6C38E/www/products/model_kitsets/32910/colour_schemes/Pfalz%20D.IIIa%205895~17,%20Franz%20Hailer,%20Jasta%2029,%20Late%201917-%20Early%201918.jpg"
"http://www.wingnutwings.com/ww/v46A6C38E/www/products/model_kitsets/32910/colour_schemes/Pfalz%20D.IIIa%208170~17,%20Hans%20Bohning,%20Jasta%2079b,%20June%201918%20(17%20victories).jpg"
"http://www.wingnutwings.com/ww/v46A6C38E/www/products/model_kitsets/32910/colour_schemes/Pfalz%20D.IIIa,%20Carl%20Degelow,%20Jasta%207,%20March%201918%20(30%20victories).jpg"
"http://www.wingnutwings.com/ww/v46A6C38E/www/products/model_kitsets/32910/colour_schemes/Pfalz%20D.IIIa,%20Rudolf%20Berthold,%20JGII,%20June%201918%20(44%20victories).jpg"
"http://www.wingnutwings.com/ww/v46A6C38E/www/products/model_kitsets/32910/colour_schemes/Pfalz%20D.IIIa,%20Werner%20Hertel,%20Jasta%2040s,%20July%201918.jpg"
"http://www.wingnutwings.com/ww/v46A6C38E/www/products/decals/30006/colour_schemes/Fokker%20D.VII%20244~18,%20Lothar%20von%20Richthofen%20(Jasta%2011,%2040%20victories)%20&%20Aloys%20Heldmann%20(Jasta%2010,%2015%20victories),%20June-July%201918.jpg"
"http://www.wingnutwings.com/ww/v46A6C38E/www/products/decals/30006/colour_schemes/Fokker%20D.VII%20373~18,%20Heinrich%20Piel,%20Jasta%2013b,%20June%201918%20(2%20victories).jpg"
"http://www.wingnutwings.com/ww/v46A6C38E/www/products/decals/30006/colour_schemes/Fokker%20D.VII%20382~18,%20Georg%20von%20Hantelmann%20(25%20victories)%20&%20Kurt%20Wustoff%20(27%20victories),%20Jasta%2015,%20June%201918.jpg"
"http://www.wingnutwings.com/ww/v46A6C38E/www/products/decals/30006/colour_schemes/Fokker%20D.VII%20402~18,%20Max%20Holtzem,%20Jasta%2016b,%20Mid%201918%20(2%20victories).jpg"
"http://www.wingnutwings.com/ww/v46A6C38E/www/products/decals/30006/colour_schemes/Fokker%20D.VII%20MK,%20Ludwig%20Reimann,%20Jasta%2078b,%20Late%201918%20(2%20victories).jpg"
"http://www.wingnutwings.com/ww/v46A6C38E/www/products/decals/30007/colour_schemes/Fokker%20D.VII%20(Alb)%20571~18,%20Adolf%20Gutknecht,%20Jasta%2043,%20July%201918%20(8%20victories).jpg"
"http://www.wingnutwings.com/ww/v46A6C38E/www/products/decals/30007/colour_schemes/Fokker%20D.VII%20(Alb)%20666~18,%20Hans%20Dannenberg%20(4%20victories),%20Vzfw.Mohring,%20Rudolf%20Nebel%20(2%20victories),%20Kest%201a~Jasta%2090,%20late%201918.jpg"
"http://www.wingnutwings.com/ww/v46A6C38E/www/products/decals/30007/colour_schemes/Fokker%20D.VII%20(Alb)%20833~18,%20Robert%20Greim,%20Jasta%2034b,%20October%201918%20(28%20victories).jpg"
"http://www.wingnutwings.com/ww/v46A6C38E/www/products/decals/30007/colour_schemes/Fokker%20D.VII%20(Alb)%205278~18%20Hertha,%20Jasta%2027,%20October-November%201918.jpg"
"http://www.wingnutwings.com/ww/v46A6C38E/www/products/decals/30007/colour_schemes/Fokker%20D.VII%20(Alb)%202,%20Otto%20Creutzmann%20(8%20victories)%20&%20Josef%20Raesch%20(7%20victories),%20Jasta%2043,%20June%20-%20July%201918.jpg"
"http://www.wingnutwings.com/ww/v46A6C38E/www/products/decals/30007/colour_schemes/Bonus%201%20-%20Fokker%20D.VII%20(Alb)%20652~18,%20Jasta%2023b,%20Mid%201918%20(Joern%20Leckscheid%20photo).jpg"
"http://www.wingnutwings.com/ww/v46A6C38E/www/products/decals/30007/colour_schemes/Bonus%202%20-%20Fokker%20D.VII%20(Alb),%20Ltn.d.r.%20Simons,%20Jasta%2043,%20Mid%201918%20(0443-040).jpg"
"http://www.wingnutwings.com/ww/v46A6C38E/www/products/decals/30008/colour_schemes/Fokker%20D.VII%20(OAW)%202052~18,%20Karl%20Thom,%20Jasta%2021s,%201918%20(27%20victories).jpg"
"http://www.wingnutwings.com/ww/v46A6C38E/www/products/decals/30008/colour_schemes/Fokker%20D.VII%20(OAW)%204453~18,%20Alfred%20Lindenberger,%20Jasta%202,%20November%201918%20(16%20victories).jpg"
"http://www.wingnutwings.com/ww/v46A6C38E/www/products/decals/30008/colour_schemes/Fokker%20D.VII%20(OAW)%204635~18%20U10,%20Heinz%20Freiherr%20von%20Beaulieu-Marconnay,%20Jasta%2065,%20September%201918.jpg"
"http://www.wingnutwings.com/ww/v46A6C38E/www/products/decals/30008/colour_schemes/Fokker%20D.VII%20(OAW)%206441~18,%20Max%20Nather,%20Jasta%2062,%20October-November%201918%20(26%20victories).jpg"
"http://www.wingnutwings.com/ww/v46A6C38E/www/products/decals/30008/colour_schemes/(updated)%20Fokker%20D.VII%20(OAW)%204631~18%20Lot.,%20Jasta%2064w,%20Late%201918.jpg"
"http://www.wingnutwings.com/ww/v46A6C38E/www/products/decals/30009/colour_schemes/Fokker%20D.VII%20(OAW)%204025~18,%20Paul%20Strahle,%20Jasta%2057,%20September%201918%20(15%20victories).jpg"
"http://www.wingnutwings.com/ww/v46A6C38E/www/products/decals/30009/colour_schemes/Fokker%20D.VII%20(OAW)%206344~18%20Yellow%20X,%20Jasta%2058,%20Late%201918.jpg"
"http://www.wingnutwings.com/ww/v46A6C38E/www/products/decals/30009/colour_schemes/Fokker%20D.VII%20(OAW)%206428~18%20Lude,%20Hans%20Joachim%20von%20Hippel,%20Jasta%2071,%20October-November%201918%20(2%20victories).jpg"
"http://www.wingnutwings.com/ww/v46A6C38E/www/products/decals/30009/colour_schemes/Fokker%20D.VII%20(OAW),%20Ltn%20Fritz%20Schliewen,%20Jasta%206,%20September%201918%20(2%20victories).jpg"
"http://www.wingnutwings.com/ww/v46A6C38E/www/products/decals/30009/colour_schemes/Fokker%20D.VII%20(OAW)%204649~18%20Seven%20Swabians,%20Alfred%20Bader,%20Jasta%2065,%201918%20(2%20victories).jpg"
"http://www.wingnutwings.com/ww/v46A6C38E/www/products/decals/30010/colour_schemes/Fokker%20D.VII%20F%20465~18,%20Georg%20von%20Hantelmann,%20Jasta%2015%20&%20JG%20II,%20October%201918%20(25%20victories).jpg"
"http://www.wingnutwings.com/ww/v46A6C38E/www/products/decals/30010/colour_schemes/Fokker%20D.VII%20F%207716~18,%20Bruno%20Loerzer(),%20Jasta%2026%20&%20JG%20III,%20(44%20victories)%20November%201918,%20Herman%20Goring%20(22%20victories)%20April%201920.jpg"
"http://www.wingnutwings.com/ww/v46A6C38E/www/products/decals/30010/colour_schemes/Fokker%20D.VII%20F%20Red%20Z,%20Jasta%2026(),%20November%201918.jpg"
"http://www.wingnutwings.com/ww/v46A6C38E/www/products/decals/30010/colour_schemes/Fokker%20D.VII%20F,%20Fritz%20Haack,%20Jasta%2046,%20Late%201918.jpg"
"http://www.wingnutwings.com/ww/v46A6C38E/www/products/decals/30010/colour_schemes/Fokker%20D.VII%20F,%20Otto%20Loffler(),%20Jasta%202,%20Late%201918%20(15%20victories).jpg"
"http://www.wingnutwings.com/ww/v46A6C38E/www/products/decals/30011/colour_schemes/Albatros%20D.V%202171~17%20Oliver%20Beaulieu-Marconnay%20-%20Jasta%2018%20late%201917.jpg"
"http://www.wingnutwings.com/ww/v46A6C38E/www/products/decals/30011/colour_schemes/Albatros%20D.V%204594~17%20Paul%20Strahle%20-%20Jasta%2018%20&%2057%201917-18.jpg"
"http://www.wingnutwings.com/ww/v46A6C38E/www/products/decals/30011/colour_schemes/Albatros%20D.V%20Josef%20Veltjens%20-%20Jasta%2018%20early%201918.jpg"
"http://www.wingnutwings.com/ww/v46A6C38E/www/products/decals/30011/colour_schemes/Albatros%20D.V%20Kurt%20Monnington%20-%20Jasta%2015%20&%2018%201917-18.jpg"
"http://www.wingnutwings.com/ww/v46A6C38E/www/products/decals/30011/colour_schemes/Albatros%20D.V,%20'Horseshoe%20&%20Clover',%20Jasta%2018,%201917-18.%20Revised%20October%202011%20due%20to%20new%20information%20received.jpg"
"http://www.wingnutwings.com/ww/v46A6C38E/www/products/decals/30012/colour_schemes/Albatros%20D.V%201055~17,%20Rudolf%20(Rudi)%20Windisch,%20Jasta%2032b,%20September%20-%20November%201917%20(22%20victories).jpg"
"http://www.wingnutwings.com/ww/v46A6C38E/www/products/decals/30012/colour_schemes/Albatros%20D.V,%202263~17,%20Otto%20Kissemberth,%20Jasta%2023b,%20late%201917%20(20%20victories).jpg"
"http://www.wingnutwings.com/ww/v46A6C38E/www/products/decals/30012/colour_schemes/Albatros%20D.V,%20Hans%20Auer,%20Jasta%2032b,%20September%201917%20(5%20victories).jpg"
"http://www.wingnutwings.com/ww/v46A6C38E/www/products/decals/30012/colour_schemes/Albatros%20D.V,%20Karl%20Schattauer,%20Jasta%2016b,%20early%201918%20(9%20victories).jpg"
"http://www.wingnutwings.com/ww/v46A6C38E/www/products/decals/30012/colour_schemes/Albatros%20D.V,%20Theodor%20Rumpel%20(5%20victories)%20&%20Ludwig%20Hanstein%20(16%20victories),%20Jasta%2016b,%20August%201917.jpg"
"http://www.wingnutwings.com/ww/v46A6C38E/www/products/decals/30013/colour_schemes/Albatros%20D.V%201187~17,%20Vfw%20Bansmer,%20Jasta%2010,%201917%20(2%20victories).jpg"
"http://www.wingnutwings.com/ww/v46A6C38E/www/products/decals/30013/colour_schemes/Albatros%20D.V%202122~17,%20Lightning%20Bolt,%20Jasta%2019,%201917-18.jpg"
"http://www.wingnutwings.com/ww/v46A6C38E/www/products/decals/30013/colour_schemes/Albatros%20D.V%204476~17,%20Ernst%20Udet,%20Jasta%2037,%20September%201917%20(62%20victories).jpg"
"http://www.wingnutwings.com/ww/v46A6C38E/www/products/decals/30013/colour_schemes/Albatros%20D.V,%202284~17,%20Hans%20Waldhausen,%20Jasta%2037,%20late%20summer%201917%20(6%20victories)..jpg"
"http://www.wingnutwings.com/ww/v46A6C38E/www/products/decals/30013/colour_schemes/Albatros%20D.V,%20Adolf%20Schreder,%20Jasta%2017,%201917-18%20(1%20victory).jpg"
"http://www.wingnutwings.com/ww/v46A6C38E/www/products/decals/30014/colour_schemes/Albatros%20D.V%202058~17,%20Alwin%20Thurm,%20Jasta%2031,%20late%201917%20(5%20victories).jpg"
"http://www.wingnutwings.com/ww/v46A6C38E/www/products/decals/30014/colour_schemes/Albatros%20D.V%20Hans%20Hermann%20von%20Budde,%20Jasta%2015,%20July%201917%20(1%20victory).jpg"
"http://www.wingnutwings.com/ww/v46A6C38E/www/products/decals/30014/colour_schemes/Albatros%20D.V,%20Claus%20von%20Waldow,%20Jasta%2015,%20March%201918.jpg"
"http://www.wingnutwings.com/ww/v46A6C38E/www/products/decals/30014/colour_schemes/Albatros%20D.V,%20Heinrich%20Gontermann,%20Jasta%2015,%20July%201917%20(39%20victories).jpg"
"http://www.wingnutwings.com/ww/v46A6C38E/www/products/decals/30014/colour_schemes/Albatros%20D.V,%20Karl%20Haustein,%20Jasta%2037,%201917-1918.jpg"
"http://www.wingnutwings.com/ww/v46A6C38E/www/products/decals/30014/colour_schemes/Albatros%20D.V,%20Kurt%20Monnington,%20Jasta%2015,%201917%20(8%20victories).jpg"
"http://www.wingnutwings.com/ww/v46A6C38E/www/products/decals/30015/colour_schemes/Albatros%20D.V%201154~17,%20Max%20Ritter%20von%20Muller,%20Jasta%2028,%20late%201917%20(36%20victories).jpg"
"http://www.wingnutwings.com/ww/v46A6C38E/www/products/decals/30015/colour_schemes/Albatros%20D.V%202329~17,%20Otto%20Fruhner,%20Jasta%2026,%20mid%201917%20(27%20victories).jpg"
"http://www.wingnutwings.com/ww/v46A6C38E/www/products/decals/30015/colour_schemes/Albatros%20D.V,%202359~17,%20Otto%20Hohmuth,%20Jasta%2023b,%20March%201918%20(4%20victories).jpg"
"http://www.wingnutwings.com/ww/v46A6C38E/www/products/decals/30015/colour_schemes/Albatros%20D.V,%20Karl%20Meierdirks,%20Jasta%2012,%20July-August%201917%20(2%20victories).jpg"
"http://www.wingnutwings.com/ww/v46A6C38E/www/products/decals/30015/colour_schemes/Albatros%20D.V,%20Otto%20Konnecke,%20Jasta%205,%20July%201917%20(35%20Victories).jpg"
"http://www.wingnutwings.com/ww/v46A6C38E/www/products/decals/30016/colour_schemes/Albatros%20%20D.Va%205787~17%20stripes,%20Jasta%2076b,%20Late%201917%20to%20early%201918.jpg"
"http://www.wingnutwings.com/ww/v46A6C38E/www/products/decals/30016/colour_schemes/Albatros%20%20D.Va,%20Lt.%20Diem,%20Jasta%2076b,%20February-March%201917%20(1%20victory).jpg"
"http://www.wingnutwings.com/ww/v46A6C38E/www/products/decals/30016/colour_schemes/Albatros%20%20D.Va,%20Hans%20Bohning,%20Jasta%2076b,%20(17%20victories)%20&%20Karl%20Hopf,%201918.jpg"
"http://www.wingnutwings.com/ww/v46A6C38E/www/products/decals/30016/colour_schemes/Albatros%20%20D.Va%20OAW%206633~17,%20Michael%20Sigmann,%20Jasta%2078b,%20April-August%201918.jpg"
"http://www.wingnutwings.com/ww/v46A6C38E/www/products/decals/30016/colour_schemes/Albatros%20%20D.Va,%20Eduard%20Ritter%20von%20Schleich,%20JG8b,%20March%201918%20(35%20Victories).jpg"
"http://www.wingnutwings.com/ww/v46A6C38E/www/products/decals/30017/colour_schemes/Albatros%20D.Va,%20Ernst%20Udet,%20Jasta%2037,%20late%201917%20(62%20victories).jpg"
"http://www.wingnutwings.com/ww/v46A6C38E/www/products/decals/30017/colour_schemes/Albatros%20D.Va,%20White%201,%20Karl%20Haustein,%20Jasta%2037,%20late%201917.jpg"
"http://www.wingnutwings.com/ww/v46A6C38E/www/products/decals/30017/colour_schemes/Albatros%20D.Va,%20White%207,%20Jasta%2037%20late%201917.jpg"
"http://www.wingnutwings.com/ww/v46A6C38E/www/products/decals/30017/colour_schemes/Albatros%20D.Va,%20White%209,%20Jasta%2037,%20late%201917.jpg"
"http://www.wingnutwings.com/ww/v46A6C38E/www/products/decals/30017/colour_schemes/Albatros%20D.Va,%20Max%20Nather,%20Jasta%2062,%20mid%201918%20(26%20victories)..jpg"
"http://www.wingnutwings.com/ww/v46A6C38E/www/products/decals/30018/colour_schemes/A%20-%20Albatros%20D.Va%205815~17,%20Gerhard%20Hubrich,%20MFJ%20IV,%20September-November%201918%20(12%20victories).jpg"
"http://www.wingnutwings.com/ww/v46A6C38E/www/products/decals/30018/colour_schemes/B%20-%20Albatros%20D.Va%207098~17,%20Gisi,%20Jasta%2017,%20Early%201918.jpg"
"http://www.wingnutwings.com/ww/v46A6C38E/www/products/decals/30018/colour_schemes/C%20-%20Albatros%20D.Va%207343~17,%20Kurt%20Jentsch,%20Jasta%2061,%20June-August%201918%20(7%20victories).jpg"
"http://www.wingnutwings.com/ww/v46A6C38E/www/products/decals/30018/colour_schemes/D%20-%20Albatros%20D.Va%20(OAW)%206981~17,%20Red%203,%20FA45b,%20Mid-late%201918.jpg"
"http://www.wingnutwings.com/ww/v46A6C38E/www/products/decals/30018/colour_schemes/E%20-%20Albatros%20D.Va%207161~17,%20National%20Air%20&%20Space%20Museum,%201979%20-%20present.jpg"
"http://www.wingnutwings.com/ww/v46A6C38E/www/products/decals/30019/colour_schemes/Pfalz%20D.IIIa%201296~18,%20Jasta%2056,%20Late%201918.jpg"
"http://www.wingnutwings.com/ww/v46A6C38E/www/products/decals/30019/colour_schemes/Pfalz%20D.IIIa%208178~17,%20Rudolf%20Stark,%20Jasta%2034b,%20May%201918%20(11%20victories).jpg"
"http://www.wingnutwings.com/ww/v46A6C38E/www/products/decals/30019/colour_schemes/Pfalz%20D.IIIa%208284~17,%20Jakob%20Pollinger,%20Jasta%2077b,%20May%201918.jpg"
"http://www.wingnutwings.com/ww/v46A6C38E/www/products/decals/30019/colour_schemes/Pfalz%20D.IIIa%208304~17,%20Late%201918.jpg"
"http://www.wingnutwings.com/ww/v46A6C38E/www/products/decals/30019/colour_schemes/Pfalz%20D.IIIa,%20Jasta%2037,%20Late%201918.jpg"
"http://www.wingnutwings.com/ww/v46A6C38E/www/products/decals/30019/colour_schemes/Pfalz%20D.IIIa,%20Marine%20Feld%20Jasta,%20Mid-late%201918.jpg"
"http://www.wingnutwings.com/ww/v46A6C38E/www/products/decals/30020/colour_schemes/Pfalz%20D.IIIa%205895~17,%20Franz%20Hailer,%20Jasta%2029,%20Late%201917-%20Early%201918.jpg"
"http://www.wingnutwings.com/ww/v46A6C38E/www/products/decals/30020/colour_schemes/Pfalz%20D.IIIa%208170~17,%20Hans%20Bohning,%20Jasta%2079b,%20June%201918%20(17%20victories).jpg"
"http://www.wingnutwings.com/ww/v46A6C38E/www/products/decals/30020/colour_schemes/Pfalz%20D.IIIa,%20Carl%20Degelow,%20Jasta%207,%20March%201918%20(30%20victories).jpg"
"http://www.wingnutwings.com/ww/v46A6C38E/www/products/decals/30020/colour_schemes/Pfalz%20D.IIIa,%20Rudolf%20Berthold,%20JGII,%20June%201918%20(44%20victories).jpg"
"http://www.wingnutwings.com/ww/v46A6C38E/www/products/decals/30020/colour_schemes/Pfalz%20D.IIIa,%20Werner%20Hertel,%20Jasta%2040s,%20July%201918.jpg"
